{
	"task": "test1",
	"type": "get_str_from_text",
	"modf_text": {
		"only_shortest_str": true,
		"low_case": true,
		"replace": {
			"standart": {
				"eng_rus": true,
				"str_int_to_int": true,
				"lower": true,
				"trim": true
			},
			"regex_replace": [{
				"old": ["\\(","\\)"],
				"new": ""
			},{
				"old": ["полтора"],
				"new": "1.5"
			},{
				"old": ["(?<=[0-9]) ?- ?[а-я]{1,3}(?!\\w)", "(?<=[0-9])(х|ти|ми)(?!\\w)"],
				"new": ""
			},
				{
				"old": ["(?<!\\w)(лип|берез|ел|лиственниц|дуб|клен|осин|сосн|вяз|деревь)[ая]ми", "лесным массивом", "подлеском"],
				"new": "лесом"
			},{
				"old": ["([а-я]+[иы]ми?( |, ?| и ))*лесом",
				        "([а-я]+(ой|ей)( |, ?| и ))*(лесополосой|рощей)"],
				"new": " лесом"
			},{
				"old": ["(?<!\\w)((лип|берез|лиственниц|дуб|клен|осин|сосн|вяз)ы|ели|деревья)(?!\\w)", "лесн(ой|ого) массив", "лесополоса",
				"(?<!\\w)((лип|берез|лиственниц|дуб|клен|осин|сосен|вяз)(ов)?|елей|деревьев)(?!\\w)", "подлесо?к", "(?<!\\w)роща(?!\\w)"],
				"new": "лес"
			},{
				"old": ["лесополосы", "(?<!\\w)рощи(?!\\w)"],
				"new": "леса"
			},{
				"old": ["([0-9]+ )?([а-я]+(ый|ой|ий|ая|яя|ие|ые|их|ых|ого|его|ой|ей)( |, ?| и ))*лес(?=а\\W|а$|\\W|$)"],
				"new": " лес"
			}, {
				"old": ["(?<!\\w)(непосредственно|полностью|несколько|много)(?!\\w)"],
				"new": ""
			},{
				"old": ["\\s+"],
				"new": " "
			},
			 {
				"old": ["(?<!\\w)(есть|раст[еу]т|сохранены|проход[ия]т|сто[ия]т|расположены?) лес(?!\\w)"],
				"new": "лес"
			}, {
				"old": ["уч-к", "(?<!\\w)соток(?!\\w)", "(?<!\\w)соток(?!\\w)"],
				"new": "участок"
			}, {
				"old": ["участок(?=[а-я])"],
				"new": "участк"
			},
			{
				"old": ["на территории участка"],
				"new": "на участке"
			},{
				"old": ["прилесной с лес(ом)?"],
				"new": "с лесом"
			},{
				"old": ["(?<!\\w)((на )?(перв|втор)(ая|ой) )?лини[яи]( от)?(?!\\w)",
					"участок у(?!\\w)",
					"(гранич[иа](т|щи[йхе])|соседству[ею]т) с(?!\\w)",
					"(крайний|угловой) (от|у)(?!\\w)",
					"(?<!\\w)ряду( от)?(\\w)",
					"(с )?выход(ом)? (с участка )?в(?!\\w)",
					"(сзади|спереди|справа|слева|напротив)( от( участка)?)?(?!\\w)",
					"(?<!\\w)полос[ае]( от)?(?!\\w)",
					"через дорогу( от( участка)?(?!\\w))?",
					"(примык|прилег)а[ею](т|щий) к(?!\\w)",
					"окружен(ны(й|х|е))?(?!\\w)",
					"(?<!\\w)в окружении",
					"(?<!\\w)за (забором|оградой)( участка)?(?!\\w)",
					"(?<!\\w)(на|по) границ(е|ам)( участка| с( участком)?)?(?!\\w)",
					"(?<!\\w)на краю( участка)?(?!\\w)",
					"(?<!\\w)примыкает( к)?(?!\\w)",
					"(?<!\\w)у участка(?!\\w)",
					"(?<!\\w)за участком(?!\\w)",
					"(?<!\\w)по периметру( участка)?(?!\\w)",
					"(?<!\\w)вокруг( участка)?(?!\\w)",
					"(?<!\\w)возле( участка)?(?!\\w)",
					"(первый|второй|третий|(?<![0-9])1|(?<![0-9])2|(?<![0-9])3)( участок)? от(?!\\w)",
				    "через( (1|2|3))? участо?ка?( от)?(?!\\w)"],
				"new": "впритык"
			},{
				"old": ["недалеко", "неподалеку",
						"(?<!\\w)в (шаговой|пешей) доступности"],
				"new": "рядом"
			},{
				"old": ["(?<=[0-9]) ?- ?[0-9]+"],
				"new": ""
			}]
		},
		"spell_check": false
	},
	"regex": [{
		"name": "менее 100 м до леса",
		"regex_find": "(?<![0-9])([0-9]{1,2}|100) ?м(\\W|етр(ов|ах)?|$)",
		"type": "string"
	},{
		"name": "менее 100 м до леса",
		"regex_find": "1 ?м(ин(ут(ах?|ы)?)?)?(\\W|$)",
		"type": "string"
	},{
		"name": "менее 100 м до леса",
		"regex_find": "впритык (([а-я]+ )*и )?лес",
		"only_unclassified": true,
		"type": "string"
	},{
		"name": "менее 100 м до леса",
		"regex_find": "лес впритык",
		"only_unclassified": true,
		"type": "string"
	},{
		"name": "менее 100 м до леса",
		"regex_find": "от леса впритык",
		"only_unclassified": true,
		"type": "string"
	},{
		"name": "менее 100 м до леса",
		"regex_find": "прилесной",
		"only_unclassified": true,
		"type": "string"
	},{
		"name": "100-500м до леса",
		"regex_find": "(?<![0-9])((1(0[1-9]|[1-9][0-9])|[2-4][0-9]{2}|500) ?м(\\W|етр(ов|ах)?|$)|(0[.,](1-4[0-9]*|5)) ?(км|километр))|полу?километр[ае]",
		"type": "string"
	},{
		"name": "100-500м до леса",
		"regex_find": "(?<![0-9])(1[.,][0-9]+|[2-4]([.,][0-9]+)?|5) ?м(ин(ут(ах?|ы)?)?)?(\\W|$)",
		"type": "string"
	},{
		"name": "500м-1км до леса",
		"regex_find": "(?<![0-9])((5(0[1-9]|[1-9][0-9])|[6-9][0-9]{2}|1000) ?м(\\W|етр(ов|ах)?|$)|(0[.,](5(0*[1-9]0*)+|[6-9][0-9]*)|1) ?(км|километр))|(?<!пар[ае] )(?<![0-9] )(?<![0-9])(?<!\\w)(км|километр)",
		"type": "string"
	},{
		"name": "500м-1км до леса",
		"regex_find": "(?<![0-9])(5[.,][0-9]+|[6-9]([.,][0-9]+)?|10) ?м(ин(ут(ах?|ы)?)?)?(\\W|$)",
		"type": "string"
	},{
		"name": "1-3 км от леса",
		"regex_find": "(?<![0-9])((100[1-9]|10[1-9][0-9]|1[1-9][0-9]{2}|2[0-9]{3}|3000) ?м(\\W|етр(ов|ах)?|$)|(1[.,][0-9]+|2([.,][0-9]+)?|3|пар[ае]) ?(км|километр))",
		"type": "string"
	},{
		"name": "1-3 км от леса",
		"regex_find": "(?<![0-9])(1[1-9]|2[0-9]|30) ?м(ин(ут(ах?|ы)?)?)?(\\W|$)",
		"type": "string"
	},{
		"name": "лес на участке",
		"regex_find": "на участке (([а-я]+ )*и )?лес",
		"type": "string"
	},{
		"name": "лес на участке",
		"regex_find": "участок ([а-я]+(ый|ий|ой)( |, ?| и ))*в лес",
		"type": "string"
	},{
		"name": "лес на участке",
		"regex_find": "участок( [а-я]+(ый|ой))? со? (([а-я]+ )*и )?лес",
		"type": "string"
	},{
		"name": "лес на участке",
		"regex_find": "лес на участке",
		"type": "string"
	},{
		"name": "лес на участке",
		"regex_find": "со? (([а-я]+ )*и )?лес(ом)? на участке",
		"type": "string"
	},{
		"name": "лес на участке",
		"regex_find": "покрыт(ый|ых|ые)? лес(ом)?",
		"type": "string"
	},{
		"name": "лес на участке",
		"regex_find": "участок ([а-я]+(ый|ий|ой)( |, ?| и ))*лесной",
		"type": "string"
	},{
		"name": "лес на участке",
		"regex_find": "(?<!\\w)лесной(( |, ?| и )[а-я]+(ый|ий|ой))* участок",
		"type": "string"
	},{
		"name": "лес на участке",
		"regex_find": "(?<!\\w)лесного ([а-я]+го( |, ?| и ))*участка",
		"type": "string"
	},{
		"name": "лес на участке",
		"regex_find": "участок ([а-я]+го( |, ?| и ))*леса",
		"type": "string"
	},{
		"name": "лес на участке",
		"regex_find": "не очищен от лес",
		"type": "string"
	},{
		"name": "лес рядом",
		"regex_find": "рядом[^\\.]+лес|лес[^\\.]+рядом",
		"only_unclassified": true,
		"type": "string"
	}]
}