{
	"task": "test1",
	"type": "get_many_float_from_text",
	"iter_lst": ["мкад", "кад", "екад", "зсд",
		"пятницкое ш", "ленинградское ш", "ярославское ш", "варшавское ш", "егорьевское ш", "каширское ш", "калужское ш",
		"киевское ш", "минское ш", "новорязанское ш", "новорижское ш", "носовихинское ш", "симферопольское ш", "щелковское ш",
		"мурманское ш", "лихачевское ш", "рублево-успенское ш", "ропшинское ш", "московское ш", "выборгское ш",
		"тюменский тракт", "челябинский тракт", "полевский тракт", "московский тракт", "серовский тракт", "ростовское ш",
		"горьковское ш", "волоколамское ш", "таллинское ш", "ильинское ш", "зеленогорское ш", "рогачевское ш", "аннинское ш",
		"пулковское ш", "вертлинское ш", "приморское ш",
		"м1", "м2", "м3", "м4", "м5", "м6", "м7", "м8", "м9"
	],
	"modf_text": {
		"low_case": true,
		"replace": {
			"standart": {
				"eng_rus": true,
				"str_int_to_int": true,
				"trim": true
			},
			"regex_replace": [{
					"old": ["(от|до) москвы", "до мкад"],
					"new": "от мкад"
				}, {
					"old": ["до кад"],
					"new": "от кад"
				}, {
					"old": ["до екад"],
					"new": "от екад"
				}, {
					"old": ["када"],
					"new": "кад"
				}, {
					"old": ["км до"],
					"new": "км от"
				}, {
					"old": ["ленинградк[ае]"],
					"new": "ленинградское ш"
				}, {
					"old": ["ярославк[ае]"],
					"new": "ярославское ш"
				}, {
					"old": ["(трасс[еа]|) кол[еаы]"],
					"new": "мурманское ш"
				}, {
					"old": ["направлени[еюя]"],
					"new": "шоссе"
				}, {
					"old": ["ого ш", "ому ш"],
					"new": "ое ш"
				}, {
					"old": ["шоссе"],
					"new": "ш"
				}, {
					"old": [" минут(ах|)", " мин.", " мин "],
					"new": " амин "
				}, {
					"old": ["километр(ов|ах?|)", "км\\."],
					"new": "км"
				}, {
					"old": ["метр(ов|ах?|)", " м\\."],
					"new": "м"
				}, {
					"old": ["отделяют", "порядка", "около", "примерно", "всего", "доезжать", "езды",
						"составляет", "до участка", "на машине", "ехать", "займет", "за", "реальных", "ее",
						"\\-х", "\\-ти", "\\-ми", "\\-и", "\\-", "\\)", "\\(", ":"
					],
					"new": " "
				},
				{
					"old": ["(?<=от\\sмкад\\s)(по\\s[а-я]{1,25}\\sш\\s)(?=\\s?\\d)", "(?<=\\d)(и)", "(?<=\\d)(\\s?х)"],
					"new": ""
				},
				{
					"old": ["\\s{2,}"],
					"new": " "
				}
			]
		}
	},
	"regex": [{
		"name": "мкад",
		"regex_find": "(?<=\\D)(\\d{1,4}[.,]?\\d{0,2})(?=\\s?км\\s?от\\s_ELEM_)",
		"type": "float"
	}, {
		"name": "мкад",
		"regex_find": "^(\\d{1,4}[.,]?\\d{0,2})(?=\\s?км\\s?от\\s_ELEM_)",
		"type": "float"
	}, {
		"name": "мкад",
		"regex_find": "(?<=от\\s_ELEM_\\s)(\\d{1,4}[.,]?\\d{0,2})(?=\\s?км)",
		"type": "float"
	}, {
		"name": "мкад",
		"regex_find": "(?<=до\\s_ELEM_\\s)(\\d{1,4}[.,]?\\d{0,2})(?=\\s?км)",
		"type": "float"
	}, {
		"name": "мкад",
		"regex_find": "(?<=\\D)(\\d{1,4}[.,]?\\d{0,2})(?=\\s?м\\s?от\\s_ELEM_)",
		"multi": 0.001,
		"comment": "метры",
		"type": "float"
	}, {
		"name": "мкад",
		"regex_find": "^(\\d{1,4}[.,]?\\d{0,2})(?=\\s?м\\s?от\\s_ELEM_)",
		"multi": 0.001,
		"comment": "метры",
		"type": "float"
	}, {
		"name": "мкад",
		"regex_find": "(?<=от\\s_ELEM_\\s)(\\d{1,4}[.,]?\\d{0,2})(?=\\s?м)",
		"multi": 0.001,
		"comment": "метры",
		"type": "float"
	}, {
		"name": "мкад",
		"regex_find": "(?<=до\\s_ELEM_\\s)(\\d{1,4}[.,]?\\d{0,2})(?=\\s?м)",
		"multi": 0.001,
		"comment": "метры",
		"type": "float"
	}, {
		"name": "мкад",
		"regex_find": "(?<=\\D)(\\d{1,4}[.,]?\\d{0,2})(?=\\s?амин\\s?от\\s_ELEM_)",
		"multi": 0.016,
		"comment": "минуты",
		"type": "float"
	}, {
		"name": "мкад",
		"regex_find": "^(\\d{1,4}[.,]?\\d{0,2})(?=\\s?амин\\s?от\\s_ELEM_)",
		"multi": 0.016,
		"comment": "минуты",
		"type": "float"
	}, {
		"name": "мкад",
		"regex_find": "(?<=от\\s_ELEM_\\s)(\\d{1,4}[.,]?\\d{0,2})(?=\\s?амин)",
		"multi": 0.016,
		"comment": "минуты",
		"type": "float"
	}, {
		"name": "мкад",
		"regex_find": "(?<=до\\s_ELEM_\\s)(\\d{1,4}[.,]?\\d{0,2})(?=\\s?амин)",
		"multi": 0.016,
		"comment": "минуты",
		"type": "float"
	}]
}