{
	"task": "naznachenit",
	"type": "get_nazn_from_text",
	"modf_text": {
		"low_case": true,
		"replace": {
			"standart": {
				"eng_rus": true,
				"str_int_to_int": true,
				"trim": true
			},
			"regex_replace": [{
				"old": ["имеется\\s+[а-я]+\\s+парковка\\s(для|под)",
					"имеется\\s+[а-я]+\\s+[а-я]+\\s+парковка\\s(для|под)",
					"стоянка\\s+(для|под)\\s+[а-я]+\\s+[а-я]+\\s+рассчитан",
					"стоянка\\s+(для|под)\\s+[а-я]+\\s+рассчитан",
					"возможн[оа]\\s(аренда|арендовать)\\sмашино[\\s-]{0,1}мест",
					"[\\s.,]не\\s(под|для)", "^не\\s(под|для)"
				],
				"new": ""
			}, {
				"old": [
					"(?<=дет|отд|мед|тех|хоз)(\\s{0,1}\\.\\s{0,1})(?=сад|стоя|центр|товар)",
					"(?<=производ)(\\s{0,1}\\.\\s{0,1})(?=площ|комплекс|база)",
					"(?<=пром)(\\s{0,1}\\.\\s{0,1})(?=комплекс|база)",
					"(?<=торгов)(\\s{0,1}\\.\\s{0,1})(?=площ|центр|комплекс)"
				],
				"new": " "
			}],
			"local": [{
					"old": ["для сотрудников", "для гостей", "для детей", "для персонала", "для арендаторов",
						"для автомобил", "для агентов", "для вас", "для вашего комфорта", "для взрослых",
						"для всей семьи", "вытяжки для", "для грузовых", "для грузового", "для двоих", "для детишек",
						"для дома", "для животных", "для жильцо", "для клиентов", "для легковых", "для легкового",
						"для любителей", "для парковки", "для переговоров", "для питания", "для посетителей",
						"для проведения", "для проживания", "для постоянного проживания", "для работы и отдых",
						"для рабочих", "для развития", "для руководства", "для тех кто", "для тех, кто", "для охраны",
						"для увеличения", "для утилизации", "для фур", "для диагностики", "для малотоннажного", "для малотоннажных",
						"для топ ", "для контроля", "для въезда", "для разгрузки", "для ремонта", "для офисной части",
						"для размещения авто", "для хранения авто", "для организации парков", "для одновременной",
						"для легковесного", "для легковесных", "для большегрузных", "для большегрузного",
						"для удобства клиентов", "для внутреннего паркинга", "для всех видов", "для нужд",
						"металлоконструкции для", "оборудования для", "оборудование для", "заезд для",
						"паркинг для", "парковка для",
						"под арендатор", "под видеонаблюдением", "под круглосуточн", "под открытым небом", "под разгрузку",
						"под охран", "под парковку", "под помещением", "под рекламу", "под личный транспорт",
						"паркинг под", "парковка под", "пандус под", "рампа под"
					],
					"new": ""
				}, {
					"old": ["инфраструктур", "кроме", "напротив", "за исключением", "на территории", "рядом",
						"ориентир", "возле", "к услугам арендаторо", "кроме", "собствен"
					],
					"new": "."
				},
				{
					"old": ["сдаются в аренду ",
						"сдаются ",
						"сдают ",
						"сдаю в аренду ",
						"сдаю ",
						"сдатся в аренду ",
						"сдатся ",
						"сдаст в аренду ",
						"сдаст ",
						"сдасдут ",
						"сдам в аренду ",
						"сдам ",
						"сдается в аренду ",
						"сдается ",
						"сдает в аренду ",
						"сдает ",
						"сдаем в аренду ",
						"сдаем ",
						"сдадим в аренду ",
						"сдадим ",
						"сейчас функционирует как",
						"реализуются ",
						"реализую ",
						"реализуется ",
						"реализует ",
						"реализуем ",
						"реализация ",
						"реализацию ",
						"реализации ",
						"рассмотреть приобретение ",
						"рассмотрение его в качестве",
						"располагался ",
						"располагалась ",
						"ранее было ",
						"ранее в здании располагались",
						"проект на строительство",
						"продаются ",
						"продают ",
						"продаю ",
						"продатся ",
						"продам ",
						"продажу ",
						"продажи ",
						"продаже ",
						"продажа ",
						"продается ",
						"продается ",
						"продает ",
						"продаем ",
						"продадим ",
						"представляем ",
						"предлагаются приобрести ",
						"предлагаются купить ",
						"предлагаются к покупке ",
						"предлагаются к аренде ",
						"предлагаются в покупку ",
						"предлагаются в аренду ",
						"предлагаются ",
						"предлагают приобрести ",
						"предлагают купить ",
						"предлагают к покупке ",
						"предлагают к аренде ",
						"предлагают в покупку ",
						"предлагают в аренду ",
						"предлагают ",
						"предлагаю приобрести ",
						"предлагаю покупку ",
						"предлагаю купить ",
						"предлагаю к покупке ",
						"предлагаю к аренде ",
						"предлагаю в покупку ",
						"предлагаю в аренду ",
						"предлагаю аренду ",
						"предлагается приобрести ",
						"предлагается купить ",
						"предлагается к покупке ",
						"предлагается к аренде ",
						"предлагается в покупку ",
						"предлагается в аренду ",
						"предлагается ",
						"предлагает приобрести ",
						"предлагает купить ",
						"предлагает к покупке ",
						"предлагает к аренде ",
						"предлагает в покупку ",
						"предлагает в аренду ",
						"предлагает ",
						"предлагаем приобрести ",
						"предлагаем покупку ",
						"предлагаем купить ",
						"предлагаем к покупке ",
						"предлагаем к аренде ",
						"предлагаем вашему вниманию ",
						"предлагаем вам купить ",
						"предлагаем в покупку ",
						"предлагаем в аренду ",
						"предлагаем аренду ",
						"право аренды на ",
						"позволяет разместить",
						"подам ",
						" под ",
						".под ",
						",под ",
						"!под ",
						"организацию",
						"разрешение на строительство",
						"назначение",
						"на продажу выставлен ",
						"можно организовать ",
						"купите ",
						"купить ",
						"можно открыть",
						"использовать как ",
						"используется как ",
						"желаемый вид деятельности ",
						"желаемый вид дейтельности ",
						" для ",
						".для ",
						",для ",
						"!для ",
						"в аренду ",
						"в настоящее врем",
						"в данный момент работает",
						"возможное использование",
						"возможность организовать",
						"виды использования",
						"варианты использования",
						"варианты его использования",
						"бывший ",
						"бывшая ",
						"бывшее ",
						"арендуются ",
						"арендуют ",
						"арендуется ",
						"арендует ",
						"арендуем ",
						"аренда "
					],
					"new": " под "
				}, {
					"old": [" под "],
					"new": ". под "
				}
			]
		}
	},
	"regex": [{
			"name": "азс",
			"group": "авто",
			"podsegm": "сфера услуг",
			"regex_filter": "\\sпод\\s(.*?)\\.|^под\\s(.*?)\\.|\\sпод\\s(.*?)$|\\sпод\\s(.*?)\\.|^(.*?)[\\.,:!]",
			"regex_find": "\\sазс|^азс|а[зг]{2}с|автомобильн[аяую]{2}\\s{1,2}заправк",
			"type": "string"
		},
		{
			"name": "автосервис",
			"group": "авто",
			"podsegm": "сфера услуг",
			"regex_filter": "\\sпод\\s(.*?)\\.|^под\\s(.*?)\\.|\\sпод\\s(.*?)$|\\sпод\\s(.*?)\\.|^(.*?)[\\.,:!]",
			"regex_find": "авто[-\\s]{0,1}сервис|ремонтный\\s{1,2}бокс|\\sсто[\\s,.]|\\sсто$|авто[-\\s]{0,1}баз|авто[-\\s]{0,1}запчаст|станци[яю]\\s{0,1}техобслуживан|авто[-\\s]{0,1}мастерск|авто[-\\s]{0,1}тюнинг|авто[-\\s]{0,1}студи|детейлинг|автоуслуги",
			"type": "string"
		},
		{
			"name": "автомойка",
			"group": "авто",
			"podsegm": "сфера услуг",
			"regex_filter": "\\sпод\\s(.*?)\\.|^под\\s(.*?)\\.|\\sпод\\s(.*?)$|\\sпод\\s(.*?)\\.|^(.*?)[\\.,:!]",
			"regex_find": "авто[-\\s]{0,1}мо[ейи][чк]|мойк[ау]\\s{0,1}авто|\\sмойк[уи]|\\sмойка\\sсамообслуживани",
			"type": "string"
		},
		{
			"name": "автосалон",
			"group": "авто",
			"podsegm": "сфера услуг",
			"regex_filter": "\\sпод\\s(.*?)\\.|^под\\s(.*?)\\.|\\sпод\\s(.*?)$|\\sпод\\s(.*?)\\.|^(.*?)[\\.,:!]",
			"regex_find": "авто[-\\s]{0,1}салон|авто[-\\s]{0,1}магазин|авто[-\\s]{0,1}центр|мото[-\\s]{0,1}салон",
			"type": "string"
		},
		{
			"name": "автотехцентр",
			"group": "авто",
			"podsegm": "сфера услуг",
			"regex_filter": "\\sпод\\s(.*?)\\.|^под\\s(.*?)\\.|\\sпод\\s(.*?)$|\\sпод\\s(.*?)\\.|^(.*?)[\\.,:!]",
			"regex_find": "авто[-\\s]{0,1}техцентр|авто[-\\s]{0,1}стояночн[ыйог]{2,3}\\s{1,2}комплекс",
			"type": "string"
		},
		{
			"name": "шиномонтаж",
			"group": "авто",
			"podsegm": "сфера услуг",
			"regex_filter": "\\sпод\\s(.*?)\\.|^под\\s(.*?)\\.|\\sпод\\s(.*?)$|\\sпод\\s(.*?)\\.|^(.*?)[\\.,:!]",
			"regex_find": "шино[-\\s]{0,1}монтаж|шинн[ыйог]{2,3}\\s{1,2}центр",
			"type": "string"
		},
		{
			"name": "аптека",
			"group": "магазин",
			"podsegm": "торговый",
			"regex_filter": "\\sпод\\s(.*?)\\.|^под\\s(.*?)\\.|\\sпод\\s(.*?)$|\\sпод\\s(.*?)\\.|^(.*?)[\\.,:!]",
			"regex_find": "аптек[ауи]|аптечн[ыйог]{2,3}\\s{1,2}пункт",
			"type": "string"
		},
		{
			"name": "выставочный зал",
			"group": "магазин",
			"podsegm": "торговый",
			"regex_filter": "\\sпод\\s(.*?)\\.|^под\\s(.*?)\\.|\\sпод\\s(.*?)$|\\sпод\\s(.*?)\\.|^(.*?)[\\.,:!]",
			"regex_find": "выставочн[ыйог]{2,3}\\s(комплекс|зал|центр)|шоу[-\\s]{0,1}рум",
			"type": "string"
		},
		{
			"name": "зоомагазин",
			"group": "магазин",
			"podsegm": "торговый",
			"regex_filter": "\\sпод\\s(.*?)\\.|^под\\s(.*?)\\.|\\sпод\\s(.*?)$|\\sпод\\s(.*?)\\.|^(.*?)[\\.,:!]",
			"regex_find": "зоо[-\\s]{0,1}магазин|зоо[-\\s]{0,1}зоотовары",
			"type": "string"
		},
		{
			"name": "продовольственный магазин",
			"group": "магазин",
			"podsegm": "торговый",
			"regex_filter": "\\sпод\\s(.*?)\\.|^под\\s(.*?)\\.|\\sпод\\s(.*?)$|\\sпод\\s(.*?)\\.|^(.*?)[\\.,:!]",
			"regex_find": "продовольственн[ыйог]{2,3}\\s{1,2}магазин|\\sпродовольственны[ех]{1}\\s{1,2}товар|\\продуктов[ыйог]{2,3}\\s{1,2}магазин|\\продуктов[ыйог]{2,3}\\s{1,2}отдел|\\продуктов[ыйог]{2,3}\\s{1,2}ларек|продукты|магазин\\s{1,2}продовольственых|магазин\\s{1,2}продуктовых|гастроном|мясной\\s{1,2}отдел",
			"type": "string"
		},
		{
			"name": "непродовольственный магазин",
			"group": "магазин",
			"podsegm": "торговый",
			"regex_filter": "\\sпод\\s(.*?)\\.|^под\\s(.*?)\\.|\\sпод\\s(.*?)$|\\sпод\\s(.*?)\\.|^(.*?)[\\.,:!]",
			"regex_find": "не\\s{0,1}продовольственн[ыйог]{2,3}\\s{1,2}магазин|не\\s{0,1}продовольственны[ех]{1}\\s{1,2}товар",
			"type": "string"
		},
		{
			"name": "оптика",
			"group": "магазин",
			"podsegm": "торговый",
			"regex_filter": "\\sпод\\s(.*?)\\.|^под\\s(.*?)\\.|\\sпод\\s(.*?)$|\\sпод\\s(.*?)\\.|^(.*?)[\\.,:!]",
			"regex_find": "оптик[ауи]",
			"type": "string"
		},
		{
			"name": "магазин",
			"group": "магазин",
			"podsegm": "торговый",
			"regex_filter": "\\sпод\\s(.*?)\\.|^под\\s(.*?)\\.|\\sпод\\s(.*?)$|\\sпод\\s(.*?)\\.|^(.*?)[\\.,:!]",
			"regex_find": "магазин|салон\\s{1,2}мебели|sтrеет[\\s-]rетаil",
			"type": "string"
		},
		{
			"name": "бутик",
			"group": "магазин",
			"podsegm": "торговый",
			"regex_filter": "\\sпод\\s(.*?)\\.|^под\\s(.*?)\\.|\\sпод\\s(.*?)$|\\sпод\\s(.*?)\\.|^(.*?)[\\.,:!]",
			"regex_find": "\\sбутик|^бутик",
			"type": "string"
		},
		{
			"name": "торговая площадь",
			"group": "магазин",
			"podsegm": "торговый",
			"regex_filter": "\\sпод\\s(.*?)\\.|^под\\s(.*?)\\.|\\sпод\\s(.*?)$|\\sпод\\s(.*?)\\.|^(.*?)[\\.,:!]",
			"regex_find": "рынок|торгов[аяуюойыег]{2,3}\\s{1,2}площад|торгов[аяуюойыег]{2,3}\\s{1,2}помещен|торгов[аяуюойыег]{2,3}\\s{1,2}мест[оа]{1}|торгов[аяуюойыег]{2,3}\\s{1,2}зал|торг\\s{1,2}помещен|торг\\s{1,2}площ|торговл[юи]{1}|\\sмаркет|павильон|ларек|киоск|торгов[аяуюойыег]{2,3}\\s{1,2}недвижимост|торгово[е]{0,1}[-\\s]",
			"type": "string"
		},
		{
			"name": "торговый центр",
			"group": "магазин",
			"podsegm": "торговый",
			"regex_filter": "\\sпод\\s(.*?)\\.|^под\\s(.*?)\\.|\\sпод\\s(.*?)$|\\sпод\\s(.*?)\\.|^(.*?)[\\.,:!]",
			"regex_find": "торгов[ыйог]{2,3}\\sцентр|торгов[ыйог]{2,3}\\sкомплекс|торгово[\\s-]{0,1}\\sразвлекательн[ыйог]{2,3}\\sцентр|торгово[\\s-]{0,1}\\sразвлекательн[ыйог]{2,3}\\комплекс|\\sтрц\\s|\\sтрк\\s|^трц\\s|^трк\\s|\\sтц\\s|^тц\\s|развлекательн[ыйго]{2,3}\\sцентр",
			"type": "string"
		},
		{
			"name": "кафе",
			"group": "кафе",
			"podsegm": "сфера услуг",
			"regex_filter": "\\sпод\\s(.*?)\\.|^под\\s(.*?)\\.|\\sпод\\s(.*?)$|\\sпод\\s(.*?)\\.|^(.*?)[\\.,:!]",
			"regex_find": "кафе|кофе\\s{1,2}с\\s{1,2}собой|кафе[-\\s]{0,1}бар|кофе[ий]{1}н[яюи]{1}|шашлычн|кондитерск|шаурму",
			"type": "string"
		},
		{
			"name": "пекарня",
			"group": "кафе",
			"podsegm": "сфера услуг",
			"regex_filter": "\\sпод\\s(.*?)\\.|^под\\s(.*?)\\.|\\sпод\\s(.*?)$|\\sпод\\s(.*?)\\.|^(.*?)[\\.,:!]",
			"regex_find": "пекарн[ияю]{1}",
			"type": "string"
		},
		{
			"name": "ресторан-бар",
			"group": "кафе",
			"podsegm": "сфера услуг",
			"regex_filter": "\\sпод\\s(.*?)\\.|^под\\s(.*?)\\.|\\sпод\\s(.*?)$|\\sпод\\s(.*?)\\.|^(.*?)[\\.,:!]",
			"regex_find": "ресторан[-\\s]{0,1}бар|бар[-\\s]{0,1}ресторан|кальянн|пиццери",
			"type": "string"
		},
		{
			"name": "ресторан-кафе",
			"group": "кафе",
			"podsegm": "сфера услуг",
			"regex_filter": "\\sпод\\s(.*?)\\.|^под\\s(.*?)\\.|\\sпод\\s(.*?)$|\\sпод\\s(.*?)\\.|^(.*?)[\\.,:!]",
			"regex_find": "ресторан[-\\s]{0,1}кафе|кафе[-\\s]{0,1}ресторан|караоке",
			"type": "string"
		},
		{
			"name": "ресторан",
			"group": "кафе",
			"podsegm": "сфера услуг",
			"regex_filter": "\\sпод\\s(.*?)\\.|^под\\s(.*?)\\.|\\sпод\\s(.*?)$|\\sпод\\s(.*?)\\.|^(.*?)[\\.,:!]",
			"regex_find": "ресторан",
			"type": "string"
		},
		{
			"name": "бар-бильярд",
			"group": "кафе",
			"podsegm": "сфера услуг",
			"regex_filter": "\\sпод\\s(.*?)\\.|^под\\s(.*?)\\.|\\sпод\\s(.*?)$|\\sпод\\s(.*?)\\.|^(.*?)[\\.,:!]",
			"regex_find": "бар[-\\s]{0,1}бильярд|бильярд[-\\s]{0,1}бар",
			"type": "string"
		},
		{
			"name": "бар",
			"group": "кафе",
			"podsegm": "сфера услуг",
			"regex_filter": "\\sпод\\s(.*?)\\.|^под\\s(.*?)\\.|\\sпод\\s(.*?)$|\\sпод\\s(.*?)\\.|^(.*?)[\\.,:!]",
			"regex_find": "[\\s,.]бар[а]{0,1}[\\s,.]|^бар[а]{0,1}[\\s,.]|[\\s,.]бар[а]{0,1}$",
			"type": "string"
		},
		{
			"name": "столовая",
			"group": "кафе",
			"podsegm": "сфера услуг",
			"regex_filter": "\\sпод\\s(.*?)\\.|^под\\s(.*?)\\.|\\sпод\\s(.*?)$|\\sпод\\s(.*?)\\.|^(.*?)[\\.,:!]",
			"regex_find": "столов[аяойую]{2}|общепит|общественн[оег]{2,3}\\sпитани",
			"type": "string"
		},
		{
			"name": "медцентр",
			"group": "медицина",
			"podsegm": "сфера услуг",
			"regex_filter": "\\sпод\\s(.*?)\\.|^под\\s(.*?)\\.|\\sпод\\s(.*?)$|\\sпод\\s(.*?)\\.|^(.*?)[\\.,:!]",
			"regex_find": "мед[\\s-]{0,1}центр|клиник|центр\\s{1,2}здоровья|медицинск[ийог]{2,3}\\s{1,2}центр|санатори|мед[\\s-]{0,1}услуги|мед[\\s-]{0,1}учреждени|медицинск[еог]{2,3}\\s{1,2}учреждени|диагностическ[ийог]{2,3}\\s{1,2}центр|медицинск[ийог]{2,3}\\s{1,2}кабинет|оздоровительн[ыйог]{2,3}\\s{1,2}центр|медицинск[аяую]{2}\\s{1,2}деятел|психолог",
			"type": "string"
		},
		{
			"name": "стоматология",
			"group": "медицина",
			"podsegm": "сфера услуг",
			"regex_filter": "\\sпод\\s(.*?)\\.|^под\\s(.*?)\\.|\\sпод\\s(.*?)$|\\sпод\\s(.*?)\\.|^(.*?)[\\.,:!]",
			"regex_find": "стоматолог[ияю]{2}|стоматологическ[ийого]{2,3}\\s{1,2}кабинет|стоматологическ[аяую]{2,3}\\s{1,2}клиник",
			"type": "string"
		},
		{
			"name": "ветеринарный центр",
			"group": "медицина",
			"podsegm": "сфера услуг",
			"regex_filter": "\\sпод\\s(.*?)\\.|^под\\s(.*?)\\.|\\sпод\\s(.*?)$|\\sпод\\s(.*?)\\.|^(.*?)[\\.,:!]",
			"regex_find": "ветеринарн[ыйог]{2,3}\\sцентр|ветеринарн[аяую]{2}\\sклиник",
			"type": "string"
		},
		{
			"name": "офис",
			"group": "офис",
			"podsegm": "офисный",
			"regex_filter": "\\sпод\\s(.*?)\\.|^под\\s(.*?)\\.|\\sпод\\s(.*?)$|\\sпод\\s(.*?)\\.|^(.*?)[\\.,:!]",
			"regex_find": "офис|бизнес[\\s-]{0,1}центр",
			"type": "string"
		},
		{
			"name": "склад-магазин",
			"group": "склад",
			"podsegm": "производственно-складской",
			"regex_filter": "\\sпод\\s(.*?)\\.|^под\\s(.*?)\\.|\\sпод\\s(.*?)$|\\sпод\\s(.*?)\\.|^(.*?)[\\.,:!]",
			"regex_find": "склад[-]{0,1}магазин|магазин[-]{0,1}склад",
			"type": "string"
		},
		{
			"name": "склад",
			"group": "склад",
			"podsegm": "производственно-складской",
			"regex_filter": "\\sпод\\s(.*?)\\.|^под\\s(.*?)\\.|\\sпод\\s(.*?)$|\\sпод\\s(.*?)\\.|^(.*?)[\\.,:!]",
			"regex_find": "склад|ангар|овоще[\\s-]{0,1}хранилищ|хранилищ|строительн[аяую]{2}баз|логистическ[ийог]{2,3}\\sцентр|элеватор|индустриальн[ыйог]{2,3}\\sкомплекс",
			"type": "string"
		},
		{
			"name": "холодильная камера",
			"group": "склад",
			"podsegm": "производственно-складской",
			"regex_filter": "\\sпод\\s(.*?)\\.|^под\\s(.*?)\\.|\\sпод\\s(.*?)$|\\sпод\\s(.*?)\\.|^(.*?)[\\.,:!]",
			"regex_find": "холодильн[аяуюыех]{2}\\sкамер|морозильн[аяуюыех]{2}\\sкамер",
			"type": "string"
		},
		{
			"name": "эллинг",
			"group": "склад",
			"podsegm": "производственно-складской",
			"regex_filter": "\\sпод\\s(.*?)\\.|^под\\s(.*?)\\.|\\sпод\\s(.*?)$|\\sпод\\s(.*?)\\.|^(.*?)[\\.,:!]",
			"regex_find": "эллинг|ремонт[а]{0,1}\\sлодок",
			"type": "string"
		},
		{
			"name": "пищевое производство",
			"group": "производство",
			"podsegm": "производственно-складской",
			"regex_filter": "\\sпод\\s(.*?)\\.|^под\\s(.*?)\\.|\\sпод\\s(.*?)$|\\sпод\\s(.*?)\\.|^(.*?)[\\.,:!]",
			"regex_find": "пищев[оег]{2,3}\\sпроизв|пищ[\\s.]{0,1}sпроизв",
			"type": "string"
		},
		{
			"name": "производство-склад",
			"group": "производство",
			"podsegm": "производственно-складской",
			"regex_filter": "\\sпод\\s(.*?)\\.|^под\\s(.*?)\\.|\\sпод\\s(.*?)$|\\sпод\\s(.*?)\\.|^(.*?)[\\.,:!]",
			"regex_find": "производство-склад|склад-производство",
			"type": "string"
		},
		{
			"name": "швейное производство",
			"group": "производство",
			"podsegm": "производственно-складской",
			"regex_filter": "\\sпод\\s(.*?)\\.|^под\\s(.*?)\\.|\\sпод\\s(.*?)$|\\sпод\\s(.*?)\\.|^(.*?)[\\.,:!]",
			"regex_find": "швейн[оег]{2,3}\\sпроизводств|швейн[оег]{2,3}\\sцех|^цех[а]{0,1}[\\s.,]{1}",
			"type": "string"
		},
		{
			"name": "цех столярный",
			"group": "производство",
			"podsegm": "производственно-складской",
			"regex_filter": "\\sпод\\s(.*?)\\.|^под\\s(.*?)\\.|\\sпод\\s(.*?)$|\\sпод\\s(.*?)\\.|^(.*?)[\\.,:!]",
			"regex_find": "цех\\sстолярн|столярн[ыйог]{2,3}\\sцех",
			"type": "string"
		},
		{
			"name": "цех",
			"group": "производство",
			"podsegm": "производственно-складской",
			"regex_filter": "\\sпод\\s(.*?)\\.|^под\\s(.*?)\\.|\\sпод\\s(.*?)$|\\sпод\\s(.*?)\\.|^(.*?)[\\.,:!]|^(.*?)[\\.,:!]",
			"regex_find": "\\sцех[а]{0,1}[\\s.,]{1}|\\sцех[а]{0,1}$",
			"type": "string"
		},
		{
			"name": "типография",
			"group": "производство",
			"podsegm": "производственно-складской",
			"regex_filter": "\\sпод\\s(.*?)\\.|^под\\s(.*?)\\.|\\sпод\\s(.*?)$|\\sпод\\s(.*?)\\.|^(.*?)[\\.,:!]",
			"regex_find": "типографи",
			"type": "string"
		},
		{
			"name": "производство",
			"group": "производство",
			"podsegm": "производственно-складской",
			"regex_filter": "\\sпод\\s(.*?)\\.|^под\\s(.*?)\\.|\\sпод\\s(.*?)$|\\sпод\\s(.*?)\\.|^(.*?)[\\.,:!]",
			"regex_find": "пр[ои]{2}зводств|мастерск[аяуюие]{2}|\\sзавод[а]{0,1}[\\s.,]{1}|\\sзавод[а]{0,1}$|предприяти|промышленн[ыйог]{2,3}\\sкомплекс|комбинат|производ[.]{0,1}\\sплощад|производственн[аяыеую]{2}\\sплощад|пром[\\s.-]{,1}база|тепличн[ыйог]{2,3}\\sкомплекс|пром[\\s.-]{,1}комплекс",
			"type": "string"
		},
		{
			"name": "бильярдный клуб",
			"group": "развлечения",
			"podsegm": "сфера услуг",
			"regex_filter": "\\sпод\\s(.*?)\\.|^под\\s(.*?)\\.|\\sпод\\s(.*?)$|\\sпод\\s(.*?)\\.|^(.*?)[\\.,:!]",
			"regex_find": "бильярдн[ыйог]{2,3}\\s{1,2}клуб",
			"type": "string"
		}, {
			"name": "интернет-кафе",
			"group": "развлечения",
			"podsegm": "сфера услуг",
			"regex_filter": "\\sпод\\s(.*?)\\.|^под\\s(.*?)\\.|\\sпод\\s(.*?)$|\\sпод\\s(.*?)\\.|^(.*?)[\\.,:!]",
			"regex_find": "интернет[\\s-]{0,1}кафе",
			"type": "string"
		}, {
			"name": "интернет-клуб",
			"group": "развлечения",
			"podsegm": "сфера услуг",
			"regex_filter": "\\sпод\\s(.*?)\\.|^под\\s(.*?)\\.|\\sпод\\s(.*?)$|\\sпод\\s(.*?)\\.|^(.*?)[\\.,:!]",
			"regex_find": "интернет[\\s-]{0,1}клуб",
			"type": "string"
		}, {
			"name": "казино",
			"group": "развлечения",
			"podsegm": "сфера услуг",
			"regex_filter": "\\sпод\\s(.*?)\\.|^под\\s(.*?)\\.|\\sпод\\s(.*?)$|\\sпод\\s(.*?)\\.|^(.*?)[\\.,:!]",
			"regex_find": "казино",
			"type": "string"
		}, {
			"name": "клуб",
			"group": "развлечения",
			"podsegm": "сфера услуг",
			"regex_filter": "\\sпод\\s(.*?)\\.|^под\\s(.*?)\\.|\\sпод\\s(.*?)$|\\sпод\\s(.*?)\\.|^(.*?)[\\.,:!]",
			"regex_find": "квест|боулинг[\\s-]{0,1}клуб",
			"type": "string"
		}, {
			"name": "нотариальная контора",
			"group": "банк",
			"podsegm": "сфера услуг",
			"regex_filter": "\\sпод\\s(.*?)\\.|^под\\s(.*?)\\.|\\sпод\\s(.*?)$|\\sпод\\s(.*?)\\.|^(.*?)[\\.,:!]",
			"regex_find": "нотариальн[аяуюой]{2}\\s{1,2}контор|нотариус",
			"type": "string"
		}, {
			"name": "обменный пункт",
			"group": "банк",
			"podsegm": "сфера услуг",
			"regex_filter": "\\sпод\\s(.*?)\\.|^под\\s(.*?)\\.|\\sпод\\s(.*?)$|\\sпод\\s(.*?)\\.|^(.*?)[\\.,:!]",
			"regex_find": "обменн[ыйог]{2,3}\\sконтор|обменн[ыйог]{2,3}\\sпункт",
			"type": "string"
		}, {
			"name": "ломбард",
			"group": "банк",
			"podsegm": "сфера услуг",
			"regex_filter": "\\sпод\\s(.*?)\\.|^под\\s(.*?)\\.|\\sпод\\s(.*?)$|\\sпод\\s(.*?)\\.|^(.*?)[\\.,:!]",
			"regex_find": "ломбард",
			"type": "string"
		}, {
			"name": "банк",
			"group": "банк",
			"podsegm": "сфера услуг",
			"regex_filter": "\\sпод\\s(.*?)\\.|^под\\s(.*?)\\.|\\sпод\\s(.*?)$|\\sпод\\s(.*?)\\.|^(.*?)[\\.,:!]",
			"regex_find": "[\\s.,]{0,1}банк[\\s.,а]|^банк[\\s.,а]|[\\s.,]банк$|отделени[ея]{1}\\sбанк|банковск[оег]{2,3}\\sотделени|банковск[уюой]{2}\\sдеятельност|банковск[оег]{2,3}\\sпомещен|банковск[оег]{2,3}\\sхранилищ|депозитори",
			"type": "string"
		}, {
			"name": "парикмахерская",
			"group": "красота",
			"podsegm": "сфера услуг",
			"regex_filter": "\\sпод\\s(.*?)\\.|^под\\s(.*?)\\.|\\sпод\\s(.*?)$|\\sпод\\s(.*?)\\.|^(.*?)[\\.,:!]",
			"regex_find": "парикмахер",
			"type": "string"
		}, {
			"name": "салон красоты",
			"group": "красота",
			"podsegm": "сфера услуг",
			"regex_filter": "\\sпод\\s(.*?)\\.|^под\\s(.*?)\\.|\\sпод\\s(.*?)$|\\sпод\\s(.*?)\\.|^(.*?)[\\.,:!]",
			"regex_find": "салон[ае]{0,1}\\s{1,2}красот|косметологи|массажн[ыйог]{2,3}\\s{1,2}кабинет|массажн[ыйог]{2,3}\\s{1,2}салон|косметическ[ийог]{2,3}\\s{1,2}салон|косметическ[ийог]{2,3}\\s{1,2}кабинет|спа[\\s-]{0,1}салон|sра[\\s-]{0,1}салон|визажист|массаж|салон[ае]{0,1}\\s{1,2}косметологи|маникюр|педикюр|ногтев[ойг]{2,3}\\s{1,2}ервис|наращивани[ея]{1}\\s{1,2}ресниц|студи[яю]{0,1}\\s{1,2}красот",
			"type": "string"
		}, {
			"name": "бытовые услуг",
			"group": "услуги",
			"podsegm": "сфера услуг",
			"regex_filter": "\\sпод\\s(.*?)\\.|^под\\s(.*?)\\.|\\sпод\\s(.*?)$|\\sпод\\s(.*?)\\.|^(.*?)[\\.,:!]",
			"regex_find": "бытов[ыех]{0,1}\\s{1,2}услуг",
			"type": "string"
		}, {
			"name": "ателье",
			"group": "услуги",
			"podsegm": "сфера услуг",
			"regex_filter": "\\sпод\\s(.*?)\\.|^под\\s(.*?)\\.|\\sпод\\s(.*?)$|\\sпод\\s(.*?)\\.|^(.*?)[\\.,:!]",
			"regex_find": "ателье",
			"type": "string"
		}, {
			"name": "салон связи",
			"group": "услуги",
			"podsegm": "сфера услуг",
			"regex_filter": "\\sпод\\s(.*?)\\.|^под\\s(.*?)\\.|\\sпод\\s(.*?)$|\\sпод\\s(.*?)\\.|^(.*?)[\\.,:!]",
			"regex_find": "салон[а]{0,1}\\s{1,2}связи",
			"type": "string"
		}, {
			"name": "химчистка",
			"group": "услуги",
			"podsegm": "сфера услуг",
			"regex_filter": "\\sпод\\s(.*?)\\.|^под\\s(.*?)\\.|\\sпод\\s(.*?)$|\\sпод\\s(.*?)\\.|^(.*?)[\\.,:!]",
			"regex_find": "химчистк",
			"type": "string"
		}, {
			"name": "туристическое агентство",
			"group": "услуги",
			"podsegm": "сфера услуг",
			"regex_filter": "\\sпод\\s(.*?)\\.|^под\\s(.*?)\\.|\\sпод\\s(.*?)$|\\sпод\\s(.*?)\\.|^(.*?)[\\.,:!]",
			"regex_find": "туристическ[оег]{2,3}\\s{1,2}агентство",
			"type": "string"
		}, {
			"name": "студия",
			"group": "услуги",
			"podsegm": "сфера услуг",
			"regex_filter": "\\sпод\\s(.*?)\\.|^под\\s(.*?)\\.|\\sпод\\s(.*?)$|\\sпод\\s(.*?)\\.|^(.*?)[\\.,:!]",
			"regex_find": "студи[яю]{1}",
			"type": "string"
		}, {
			"name": "туристическое агентство",
			"group": "услуги",
			"podsegm": "сфера услуг",
			"regex_filter": "\\sпод\\s(.*?)\\.|^под\\s(.*?)\\.|\\sпод\\s(.*?)$|\\sпод\\s(.*?)\\.|^(.*?)[\\.,:!]",
			"regex_find": "туристическ[оег]{2,3}\\s{1,2}агентств|турагентств",
			"type": "string"
		}, {
			"name": "учебный зал",
			"group": "услуги",
			"podsegm": "сфера услуг",
			"regex_filter": "\\sпод\\s(.*?)\\.|^под\\s(.*?)\\.|\\sпод\\s(.*?)$|\\sпод\\s(.*?)\\.|^(.*?)[\\.,:!]",
			"regex_find": "учебн[ыйог]{2,3}\\s{1,2}зал|тренинг|для\\sзанятий\\sс\\sдетьми|учебн[ыйог]{2,3}\\sцентр|образовательн[оег]{2,3}\\sучреждени|учебн[оег]{2,3}\\sучреждени",
			"type": "string"
		}, {
			"name": "гостиница",
			"group": "гостиница",
			"podsegm": "гостиничный",
			"regex_filter": "\\sпод\\s(.*?)\\.|^под\\s(.*?)\\.|\\sпод\\s(.*?)$|\\sпод\\s(.*?)\\.|^(.*?)[\\.,:!]",
			"regex_find": "гостини[цч]|\\sотел[ья]|хостел|гостев[ойг]{2,3}\\sдом|пансионат|профилактори|общежитие|отел[ья]|баз[ау]\\sотдых",
			"type": "string"
		}, {
			"name": "сауна",
			"group": "гостиница",
			"podsegm": "сфера услуг",
			"regex_filter": "\\sпод\\s(.*?)\\.|^под\\s(.*?)\\.|\\sпод\\s(.*?)$|\\sпод\\s(.*?)\\.|^(.*?)[\\.,:!]",
			"regex_find": "саун[уа]",
			"type": "string"
		}, {
			"name": "фитнес",
			"group": "спорт",
			"podsegm": "сфера услуг",
			"regex_filter": "\\sпод\\s(.*?)\\.|^под\\s(.*?)\\.|\\sпод\\s(.*?)$|\\sпод\\s(.*?)\\.|^(.*?)[\\.,:!]",
			"regex_find": "фитнес|спорт[\\s-]{0,1}зал|танц[\\s-]{0,1}зал|спортивн[ыйог]{2,3}\\sзал|спорт[\\s-]{0,1}клуб|спортивн[ыйог]{2,3}\\sклуб|студи[яю]{1}\\sтанцев|зал\\sдля\\sтанцев|тренажерн[ыйог]{2,3}\\sзал|тренажерн[ыйог]{2,3}\\sклуб|танцевальн[ыйог]{2,3}\\sзал|танцевальн[ыйог]{2,3}\\sклуб|зал\\sкроссфит",
			"type": "string"
		}, {
			"name": "детское учреждение",
			"group": "детское учреждение",
			"podsegm": "сфера услуг",
			"regex_filter": "\\sпод\\s(.*?)\\.|^под\\s(.*?)\\.|\\sпод\\s(.*?)$|\\sпод\\s(.*?)\\.|^(.*?)[\\.,:!]",
			"regex_find": "детск[оег]{2,3}\\sучреждени|детск[оег]{2,3}\\sклуб|детск[ийог]{2,3}\\sсад|детск[ийог]{2,3}\\sцентр|детск[ийог]{2,3}\\sразвлекательн[ыйог]{2,3}\\sцентр|детск[аяую]{2}\\sкомнат|парк\\sаттракционов|дошкольн[оег]{2,3}\\s{1,2}учреждени",
			"type": "string"
		}, {
			"name": "торговая площадь",
			"group": "магазин",
			"podsegm": "торговый",
			"regex_filter": "(.+)",
			"regex_find": "перв[аяуюой]{2}[\\S]{0,1}\\s{1,2}лини[яию]|красн[аяуюой]{2}[\\S]{0,1}\\s{1,2}лини[яию]|[1I]{1}[-\\s]{0,1}[аоу]{0,1}[яйю]{0,1}\\s{0,2}лин[яию]|перв[аяуюой]{2}[\\S]{0,1}\\s{1,2}[0-9а-яА-Я]+\\sлини[яию]|красн[аяуюой]{2}[\\S]{0,1}\\s{1,2}[0-9а-яА-Я]+\\s{1,2}лини[яию]|[1I]{1}[-\\s]{0,1}[аоу]{0,1}[яйю]{0,1}\\s{0,2}\\s{1,2}[0-9а-яА-Я]+\\s{1,2}лин[яию]|высок[ийм]{2,3}\\sпешеходн[ыйм]{2,3}\\sтрафик|высок[ийм]{2,3}\\sтрафик|проходн[оем]{2}\\s{1,2}мест[ое]|высок[аяой]\\sпроходимость",
			"type": "string"
		}, {
			"name": "свободное",
			"group": "псн",
			"podsegm": "ПСН",
			"regex_filter": "\\sпод\\s(.*?)\\.|^под\\s(.*?)\\.|\\sпод\\s(.*?)$|\\sпод\\s(.*?)\\.|^(.*?)[\\.,:!]",
			"regex_find": "свободн[оег]{2,3}\\s{1,2}назначен|люб[ойг]{2,3}\\s{1,2}вид[а]{0,1}\\s{1,2}дейтельност|люб[ойг]{2,3}\\s{1,2}тип[а]{0,1}\\s{1,2}дейтельност|люб[уюой]{2}\\s{1,2}дейтельност|люб[ойг]{2,3}\\s{1,2}вид[а]{0,1}\\sкоммерческ[ойую]{2}\\s{1,2}дейтельност|люб[ойую]{2}\\s{1,2}коммерческ[ойую]{2}\\s{1,2}дейтельност|люб[ойг]{2,3}\\s{1,2}целев[ойг]{2,3}\\s{1,2}назначен|универсальн[оег]{2,3}\\s{1,2}помещен|универсальн[оег]{2,3}\\s{1,2}назначен|универсальн[оег]{2,3}\\s{1,2}сооружен|псн|многофункциональн[оег]{2,3}\\s{1,2}помещен|свободн[оег]{2,3}\\s{1,2}помещения|любые\\s{1,2}цели|помещени[ея]\\sнеопределенного\\sназначени",
			"type": "string"
		}, {
			"name": "гараж",
			"group": "гараж",
			"podsegm": "гаражи и машиноместа",
			"regex_filter": "\\sпод\\s(.*?)\\.|^под\\s(.*?)\\.|\\sпод\\s(.*?)$|\\sпод\\s(.*?)\\.|^(.*?)[\\.,:!]",
			"regex_find": "гараж",
			"type": "string"
		}
	]
}