{
	"task": "postroiki",
	"type": "get_str_from_text",
	"modf_text": {
		"only_shortest_str": false,
		"low_case": true,
		"replace": {
			"standart": {
				"eng_rus": true,
				"str_int_to_int": true,
				"trim": true
			},
			"regex_replace": [{
				"old": ["ё"],
				"new": "е"
			}, {
				"old": ["кв\\s?\\.\\s?м", "м\\s?\\.\\s?кв"],
				"new": "квм"
			}, {
				"old": ["\\(","\\)"],
				"new": " "
			},
			{
				"old": [":\\s+\\-", "рядом с"],
				"new": ""
			},{
				"old": ["\\s+"],
				"new": " "
			},
			{
				"old": ["благоустрое[н]{1,2}[ыйиоемгаях]{2,3}", "блоч[ыйиоемгаях]{2,3}", "\\sбольш[ыйиоемгаях]{2,3}", "бревенчат[ыйиоемгаях]{2,3}",
					"бытов[ыйиоемгаях]{2,3}", "деревя[н]{1,2}[ыйиоемгаях]{2,3}", "оформле[н]{1,2}[ыйиоемгаях]{2,3}",
					"великолеп[ыйиоемгаях]{2,3}", "вpеме[н]{1,2}[ыйиоемгаях]{2,3}", "гостев[ыйиоемгаях]{2,3}", "дачн[ыйиоемгаях]{2,3}",
					"зарегистрирова[н]{1,2}[ыйиоемгаях]{2,3}", "\\sжил[ыйиоемгаях]{2,3}", "контейнерн[ыйиоемгаях]{2,3}", "крепк[ыйиоемгаях]{2,3}",
					"каркасн[ыйиоемгаях]{2,3}", "нов[ыйиоемгаях]{2,3}", "не ?больш[ыйиоемгаях]{2,3}", "нежил[ыйиоемгаях]{2,3}",
					"обыкнове[н]{1,2}[ыйиоемгаях]{2,3}", "тепл[ыйиоемгаях]{2,3}", "просторн[ыйиоемгаях]{2,3}",
					"производстве[н]{1,2}[ыйиоемгаях]{2,3}", "прост[ыйиоемгаях]{2,3}", "садов[ыйиоемгаях]{2,3}", "сама[н]{1,2}[ыйиоемгаях]{2,3}",
					"складск[ыйиоемгаях]{2,3}", "строительн[ыйиоемгаях]{2,3}", "уютн[ыйиоемгаях]{2,3}", "хорош[ыйиоемгаях]{2,3}",
					"хозяйстве[н]{1,2}[ыйиоемгаях]{2,3}", "мета[л]{1,2}ическ[ыйиоемгаях]{2,3}", "основательн[ыйиоемгаях]{2,3}",
					"прочн[ыйиоемгаях]{2,3}", "утепле[н]{1,2}[ыйиоемгаях]{2,3}", "шикарнплитн[ыйиоемгаях]{2,3}", 
					"дополнительн[ыйиоемгаях]{2,3}", "узаконе[н]{1,2}[ыйиоемгаях]{2,3}", "утеплен[н]{1,2}[ыйиоемгаях]{2,3}"
				],
				"new": ""
			}, {
				"old": ["армирова[н]{1,2}[ыйиоемгаях]{2,3}", "монолитно[\\s\\-]?бето[н]{1,2}[ыйиоемгаях]{2,3}", "бето[н]{1,2}[ыйиоемгаях]{2,3}",
					"добротн[ыйиоемгаях]{2,3}", "добросовестн[ыйиоемгаях]{2,3}", "готов[ыйиоемгаях]{2,3}", "заглубле[н]{1,2}[ыйиоемгаях]{2,3}",
					"заливн[ыйиоемгаях]{2,3}", "заложе[н]{1,2}[ыйиоемгаях]{2,3}", "качестве[н]{1,2}[ыйиоемгаях]{2,3}", "красивошн[ыйиоемгаях]{2,3}",
					"ленточн[ыйиоемгаях]{2,3}", "свайн[ыйиоемгаях]{2,3}", "монолитн[ыйиоемгаях]{2,3}", "мощн[ыйиоемгаях]{2,3}",
					"многослойн[ыйиоемгаях]{2,3}", "столбчат[ыйиоемгаях]{2,3}", "подготовле[н]{1,2}[ыйиоемгаях]{2,3}",
					"прямоугольн[ыйиоемгаях]{2,3}", "свайно[\\s\\-]?ростверков[ыйиоемгаях]{2,3}", "сплошн[ыйиоемгаях]{2,3}",
					"существующ[ыйиоемгаях]{2,3}", "точечн[ыйиоемгаях]{2,3}"
				],
				"new": ""
			},
			{
				"old": ["(?<!\\w)не *достроенн(ы[йемх]|ого) +([а-я]+(ы[йемх]|ого) +)*(дом(ик)?(а|о[мв]|и)?(?!\\w)|дач|коттедж|гараж|строен|постройк|объект)",
				"(?<!\\w)незавершенн(о(го|е)) +строительств[оа](?!\\w)", "(?<!\\w)не *достро(й|ем)(?!\\w)"],
				"new": "онс"
			},
			{
				"old": ["(прода(ются|ют|ю|ется|ет|ем|тся|м|дим|жа|жу|же|жи)|представл(ятся|ят|ю|ется|ет|ем|тся|м|яем)|предлага(ются|ют|ю|ется|ет|ем|тся|м|)|сда(ются|ют|ю|ется|ет|ем|тся|м|дим|ст|сдут)|аренд(уются|уют|уется|ует|уем|а|е|у)|реализ(уются|уют|ую|уется|ует|уем|аци[яюи]))"],
				"new": "продается"
			}, {
				"old": ["(?<!\\w)бытовк(а(ми)?|и|ой|у)(?!\\w)",
					"(?<!\\w)хоз\\.? *(постройк(а(ми)?|и|ой)|блок(а(ми)?|и|ом|у)?|строени(е|я(ми)?))(?!\\w)",
					"(?<!\\w)([а-я]+\\-)?(летн|вагончат|садов|сезонн|временн|не *капитальн|щитов)[а-я]{2,3} +([а-я]+(ий|ый|ой|им|ым|его|ого) +)*домик(а(ми)?|и|ом|у)?",
					"(?<!\\w)времянк(а(ми)?|и|ой)(?!\\w)",
					"(?<!\\w)(летн|вагончат|садов|сезонн|временн|не *капитальн|щитов)[а-я]{2,3} +([а-я]+(ий|ый|ой|им|ым|его|ого) +)*дом(а|ом)?(?!\\w)",
					"(?<!\\w)((временн|дополнительн|не *капитальн)(ая|ы(е|ми))) постройк(а(ми)?|и)(?!\\w)",
					"(?<!\\w)ангар(ом|ами)?(?!\\w)",
					"(?<!\\w)сара(й(чик)?|ем|я)(?!\\w)",
					"(?<!\\w)теплиц(а(ми)?|ей|ы)(?!\\w)",
					"(?<!\\w)парник(ом|а|и|ов)?(?!\\w)",
					"(?<!\\w)сруб(ом|а)? +под +баню(?!\\w)",
					"(?<!\\w)бан(я(ми)?|ей|и)(?!\\w)",
					"(?<!\\w)баньк(а(ми)?|ой|и)(?!\\w)",
					"(?<!\\w)(блок *-? *)?контейнер(а(ми)?|ы|ов)?(?!\\w)",
					"(?<!\\w)беседк(а(ми)?|и|ой)(?!\\w)",
					"(?<!\\w)будк(а(ми)?|и|ой)(?!\\w)",
					"(?<!\\w)вагончик(ом|у|а|и|ами)?(?!\\w)",
					"(?<!\\w)гараж(ом|у|а|и|ами)?(?!\\w)",
					"(?<!\\w)домик +для(?!\\w)"
				],
				"new": "нкс"
			},{
				"old": ["(?<!\\Wне) ?капитальн[а-я]{2,3} ([а-я]+(ый|ий|ой|ая|яя|ую|юю|его|ого|ых|их) |[0-9]+ )*нкс"],
				"new": "дом"
			},{
				"old": ["(?<!\\w)фундамент(о[мв]|а|е|ы|ами)(?!\\w)",
				"(?<!\\w)фундаментн(ая|ы(е|ми)|ой) +плит(а(ми)?|ой)(?!\\w)",
				"(?<!\\w)фундаментн(ы(й|е|м|х)|ого) +блок[аи]?(?!\\w)",
				"(?<!\\w)плита +([а-я]+(ого|его) )*фундамента(?!\\w)",
				"(?<!\\w)блок +([а-я]+(ого|его) )*фундамента(?!\\w)",
			    "(?<!\\w)цокол(ь|ем|н[а-я]{2} +этаж[а-я]*)(?<!\\w)"],
				"new": "фундамент"
			}, {
				"old": ["(?<!\\w)возможна +(покупка +|продажа +){1,2}(земли|(земельного +)?участка) +без +(построек|строений)"],
				"new": ""
			}, {
				"old": ["(?<!\\w)готов[а-я]* к проживанию"],
				"new": "готовый"
			}, {
				"old": ["(?<!\\w)(дом(ик)? +)?под +(снос|слом)(?!\\w)",
					    "подлежит (сносу|слому)",
						"(?<!\\w)(стар(еньк)?|ветх|обгоре(л|вш))[а-я]{2} +([а-я]+(ий|ый|о(й|го)|ая|ую),? +)*дом",
						"(?<!\\w)дом(ик)? +(стар(еньк)|ветх|обгоре(л|вш))[а-я]{2}(?! +снесен)(?! +снесли)(?!\\w)"],
				"new": "ветхое здание"
			},
			{
				"old": [":","\\-"],
				"new": " "
			},
			{
				"old": ["\\s+"],
				"new": " "
			}
		]
		}
	},
	"regex": [{
		"name": "Капитальное строение",
		"regex_find": "((на\\sучастке|на\\sуч-ке|на\\sз\\/?у|на\\sтерритории\\s?(участка|))\\s?(есть|име[ею]тся|построен[аоы]?|сто[ия]т|располага[ею]тся|расположен[аы]?|возведен[аы]?|наход[ия]тся|кроме|)|участок\\s(с|и)|(продается|продам|продаю))\\s?:?\\s?(жил[ойыем]{2,3}|зимн[ийме]{2,3}|кирпичн[ыйомеая]{2,3}|деревянн[ыйоемая]{2,3}|капитальн[аяомеыг]{2,3}|дачн[ыймоеая]{2,3}|крепк[ийомеая]{2,3}|больш[ойаямие]{2,3}|жил[ыеаяомх]{2,3}|нежил[ыеамяох]{2,3}|)\\s?(\\d|двумя|тремя|несколько|часть|[123]\/[2345]|)\\s?((\\d|двух|одно|трех)[\\s\\-]?(этажный|эт\\.?)|)\\s?(дом|(капитальн[ыйеох]{2,3}|кирпичн[ыйеох]{2,3})\\s(строени|гараж|сарай)|постройк|сруб|коттедж|осз|таунхаус|дача|здани)",
		"type": "string",
		"comment": "на участке дом"
	}, {
		"name": "Капитальное строение",
		"regex_find": "^(есть|име[ею]тся|построен[аоы]?|сто[ия]т|располага[ею]тся|расположен[аы]?|возведен[аы]?|наход[ия]тся|кроме|)\\s?(жил[ойыем]{2,3}|зимн[ийме]{2,3}|кирпичн[ыйомеая]{2,3}|деревянн[ыйоемая]{2,3}|капитальн[аяомеыг]{2,3}|дачн[ыймоеая]{2,3}|крепк[ийомеая]{2,3}|больш[ойаямие]{2,3}|жил[ыеаяомх]{2,3}|нежил[ыеамяох]{2,3}|)\\s?(\\d|двумя|тремя|несколько|часть|[123]\/[2345]|)\\s?((\\d|двух|одно|трех)[\\s\\-]?(этажный|эт\\.?)|)\\s?(дом|(капитальн[ыйеох]{2,3}|кирпичн[ыйеох]{2,3})\\s(строени|гараж|сарай)|постройк|сруб|коттедж\\s|осз|таунхаус|дача|здани)",
		"type": "string",
		"comment": "начинается с дом"
	}, {
		"name": "Капитальное строение",
		"regex_find": "в\\s?(жил[ойыем]{2,3}|зимн[ийме]{2,3}|кирпичн[ыйомеая]{2,3}|деревянн[ыйоемая]{2,3}|капитальн[аяомеыг]{2,3}|дачн[ыймоеая]{2,3}|крепк[ийомеая]{2,3}|больш[ойаямие]{2,3}|жил[ыеаяомх]{2,3}|нежил[ыеамяох]{2,3}|)\\s?(\\d|двумя|тремя|несколько|часть|[123]\\/[2345])\\s?((\\d|двух|одно|трех)[\\s\\-]?(этажный|эт\\.?)|)\\s?(дом[ае]?|(капитальн[ыйеох]{2,3}|кирпичн[ыйеох]{2,3})\\s(строени|гараж|сарай)|постройк|сруб|коттедж|осз|таунхаус|дача|здание)",
		"type": "string",
		"comment": "в доме"
	}, {
		"name": "Капитальное строение",
		"regex_find": "(участок\\s(вместе\\sс|с|\\+))\\s?(дом|(капитальн[ыйеомх]{2,3}|кирпичн[ыйемох]{2,3})\\s(строени|гараж|сарай)|постройк|сруб|коттедж|осз|таунхаус|дача|здани)",
		"type": "string",
		"comment": "участок вместе с домом"
	}, {
		"name": "Капитальное строение",
		"regex_find": "(дом[ае]?|(капитальн[ыйеох]{2,3}|кирпичн[ыйеох]{2,3})\\s(строени|гараж|сарай)|постройк|сруб|коттедж|осз|таунхаус|дача|здание)\\s?(и\\s?(земельный|)\\s?участок|)\\sв\\sсобственности|(cобственность|права)\\sна\\s((земельн[ыйе]{2}|)\\s?участ[окиа]{2}|)\\s?(и|)\\s?(на|)\\s?(дом[ае]?|(капитальн[ыйеох]{2,3}|кирпичн[ыйеох]{2,3})\\s(строени|гараж|сарай)|постройк|сруб|коттедж|осз|таунхаус|дача|здани)",
		"type": "string",
		"comment": "здание в собственности"
	}, {
		"name": "Капитальное строение",
		"regex_find": "(газ|свет|электричество|эл[\\s\\-]?во|вода|водоснабжение)\\sв\\s(дом[аоме]?|(капитальн[ыйеомх]{2,3}|кирпичн[ыйемох]{2,3})\\s(строени|гараж|сарай)|постройк|сруб|коттедж|осз|таунхаус|дача|здани)",
		"type": "string",
		"comment": "газ в доме"
	}, {
		"name": "Капитальное строение",
		"regex_find": "(дом[аоме]?|(капитальн[ыйеомх]{2,3}|кирпичн[ыйемох]{2,3})\\s(строени(е|я|ями|ем)|гараж(и|ом|ами|)|сара(я|и|ем|ями))|постройк(а|и|ой|ами)|сруб|коттедж|осз|таунхаус|дача|здани(е|я|ем|ями))\\s[\\d,]{1,5}\\s(квм|м2)",
		"type": "string",
		"comment": "дом 20 квм"
	}, {
		"name": "Капитальное строение",
		"regex_find": "[\\s,\\.](с|со)\\s(домом?|(капитальн[ыйеомх]{2,3}|кирпичн[ыйемох]{2,3})\\s(строеним|гаражом|сараем)|постройкой|срубом|коттеджем|осз|таунхаусом|дачей|зданием)",
		"type": "string",
		"comment": "с домом"
	}, {
		"name": "Капитальное строение",
		"regex_find": "(половина|часть)\\s(дома?|(капитального|кирпичного)\\s(строения|гараж|сарая)|постройки|сруба|коттеджа|осз|таунхауса|дачи|здания)",
		"type": "string",
		"comment": "часть дома"
	}, {
		"name": "Капитальное строение",
		"regex_find": "(продается|продам|продаю)\\s(земельны[йе]\\sучастоки?|участ[оки]|зу|землю|)\\s?(и|)\\s(\\d{1,5}[,.]?\\d{1,2}\\s?(квм|га|сот(ок|ки|)|)|)\\s?(с|)\\s?(жил[ойыеим]{2,3}|зимн[иймеи]{2,3}|кирпичн[ыйиомеая]{2,3}|деревянн[ыийоемая]{2,3}|капитальн[аяомеыиг]{2,3}|дачн[ыймоеиая]{2,3}|крепк[ийомеая]{2,3}|больш[ойаяиие]{2,3}|жил[ыеаиомх]{2,3}|нежил[ыеамияох]{2,3}|)\\s?(\\d|двумя|тремя|несколько|часть|[123]\\/[2345]|)\\s?((\\d|двух|одно|трех)[\\s\\-]?(этажный|эт\\.?)|)\\s?(дом|(капитальн[ыймиеох]{2,3}|кирпичн[ыйеох]{2,3})\\s(строени|гараж|сарай)|постройк|сруб|коттедж|осз|таунхаус|дача|здани)",
		"type": "string",
		"comment": "продается участок с зданием"
	}, {
		"name": "Капитальное строение",
		"regex_find": "(площадью?|s\\s?=\\s?)\\s?([а-я]+|)\\s?(дом|(капитальн[ыймиеох]{2,3}|кирпичн[ыйеох]{2,3})\\s(строени|гараж|сарай)|постройк|сруб|коттедж|осз|таунхаус|дача|здани)",
		"type": "string",
		"comment": "площадь ... дома"
	}, {
		"name": "Капитальное строение",
		"regex_find": "(дом(ом|ами|а|)|(капитальн[ыймиеох]{2,3}|кирпичн[ыйеох]{2,3})\\s(строени(е|я|ем|ями)|гараж(ом|ы|ами)|сара(й|ем|и|ями))|постройк(а|и|ой|ами)|сруб(ом|)|коттедж(ем|)|осз|таунхаус(ом|)|дач(е|ей)|здани(я|ем|е|ями))\\s(общ[ейая]{2}|)\\s?площадь",
		"type": "string",
		"comment": "дома площадью..."
	}, {
		"name": "Капитальное строение",
		"regex_find": "(участок|уч-к|земля|зу)\\s(с|со)\\s(дом|(капитальн[ыймиеох]{2,3}|кирпичн[ыйеох]{2,3})\\\\s(строени|гараж|сарай)|постройк|сруб|коттедж|осз|таунхаус|дача|здани)",
		"type": "string",
		"comment": "участок.... с ... домом"
	},
	{
		"name": "Капитальное строение",
		"regex_find": "(дом[аоме]?|(капитальн[ыйеомх]{2,3}|кирпичн[ыйемох]{2,3})\\s(строени(е|я|ями|ем)|гараж(и|ом|ами|)|сара(я|и|ем|ями))|постройк(а|и|ой|ами)|сруб|коттедж|осз|таунхаус|дача|здани(е|я|ем|ями))\\s\\d\\s?этаж",
		"type": "string",
		"comment": "дом 2 этажа"
	},
	{
		"name": "Да",
		"regex_find": "((на\\sучастке|на\\sуч-ке|на\\sз\\/?у|на\\sтерритории\\s?(участка|))\\s?(есть|име[ею]тся|построен[аоы]?|сто[ия]т|располага[ею]тся|расположен[аы]?|возведен[аы]?|наход[ия]тся|кроме|)|участок\\s(с|и)|(продается|продам|продаю))\\s?:?\\s?(\\d|двумя|тремя|несколько|часть|[123]\\/[2345]|)\\s?((\\d|двух|одно|трех)[\\s\\-]?(этажный|эт\\.?)|)\\s?(^капитальн[оегыхми]{2,3}|[а-яА-Я]{1,7}\\s?|)\\s?строени",
		"type": "string",
		"comment": "на участке строение"
	}, {
		"name": "Да",
		"regex_find": "^(есть|име[ею]тся|построен[аоы]?|сто[ия]т|располага[ею]тся|расположен[аы]?|возведен[аы]?|наход[ия]тся|кроме)\\s?(жил[ойыем]{2,3}|зимн[ийме]{2,3}|кирпичн[ыйомеая]{2,3}|деревянн[ыйоемая]{2,3}|капитальн[аяомеыг]{2,3}|дачн[ыймоеая]{2,3}|крепк[ийомеая]{2,3}|больш[ойаямие]{2,3}|жил[ыеаяомх]{2,3}|нежил[ыеамяох]{2,3}|)\\s?(\\d|двумя|тремя|несколько|часть|[123]\\/[2345]|)\\s?((\\d|двух|одно|трех)[\\s\\-]?(этажный|эт\\.?)|)\\s?(^капитальн[оегыхми]{2,3}|[а-яА-Я]{1,7}\\s?|)\\s?строени",
		"type": "string",
		"comment": "начинается со строение"
	}, {
		"name": "Да",
		"regex_find": "в\\s?(жил[ойыем]{2,3}|зимн[ийме]{2,3}|кирпичн[ыйомеая]{2,3}|деревянн[ыйоемая]{2,3}|капитальн[аяомеыг]{2,3}|дачн[ыймоеая]{2,3}|крепк[ийомеая]{2,3}|больш[ойаямие]{2,3}|жил[ыеаяомх]{2,3}|нежил[ыеамяох]{2,3}|)\\s?(\\d|двумя|тремя|несколько|часть|[123]\\/[2345])\\s?((\\d|двух|одно|трех)[\\s\\-]?(этажный|эт\\.?)|)\\s?(^капитальн[оегыхми]{2,3}|[а-яА-Я]{1,7}\\s?|)\\s?строени",
		"type": "string",
		"comment": "в строении"
	}, {
		"name": "Да",
		"regex_find": "(участок\\s(вместе\\sс|с|\\+))\\s?(^капитальн[оегыхми]{2,3}|[а-яА-Я]{1,7}\\s?|)\\s?строени",
		"type": "string",
		"comment": "участок вместе со строением"
	}, {
		"name": "Да",
		"regex_find": "(^капитальн[оегыхми]{2,3}|[а-яА-Я]{1,7}\\s?|)\\s?строени[ея]\\s[\\d,]{1,5}\\s(квм|м2)",
		"type": "string",
		"comment": "строение 20 квм"
	}, {
		"name": "Да",
		"regex_find": "[\\s,\\.]со\\s(^капитальн[оегыхми]{2,3}|[а-яА-Я]{1,7}\\s?|)\\s?строени",
		"type": "string",
		"comment": "со строением"
	}, {
		"name": "Да",
		"regex_find": "(половина|часть)\\s(^капитальн[оегыхми]{2,3}|[а-яА-Я]{1,7}\\s?|)\\s?строени(ем|ями)",
		"type": "string",
		"comment": "часть строения"
	}, {
		"name": "Да",
		"regex_find": "(продается|продам|продаю)\\s(земельны[йе]\\sучастоки?|участ[оки]|зу|землю|)\\s?(и|)\\s(\\d{1,5}[,.]?\\d{1,2}\\s?(квм|га|сот(ок|ки|)|)|)\\s?(с|)\\s?(жил[ойыеим]{2,3}|зимн[иймеи]{2,3}|кирпичн[ыйиомеая]{2,3}|деревянн[ыийоемая]{2,3}|капитальн[аяомеыиг]{2,3}|дачн[ыймоеиая]{2,3}|крепк[ийомеая]{2,3}|больш[ойаяиие]{2,3}|жил[ыеаиомх]{2,3}|нежил[ыеамияох]{2,3}|)\\s?(\\d|двумя|тремя|несколько|часть|[123]\\/[2345]|)\\s?((\\d|двух|одно|трех)[\\s\\-]?(этажный|эт\\.?)|)\\s?(^капитальн[оегыхми]{2,3}|[а-яА-Я]{1,7}\\s?|)\\s?строени",
		"type": "string",
		"comment": "продается участок со строением"
	}, {
		"name": "Да",
		"regex_find": "(площадью?|s\\s?=\\s?)\\s?([а-я]+|)\\s?(^капитальн[оегыхми]{2,3}|[а-яА-Я]{1,7}\\s?|)\\s?строени|(^капитальн[оегыхми]{2,3}|[а-яА-Я]{1,7}\\s?|)\\s?строени(е|я|ем|ями)\\s(общей|)\\s?площадь",
		"type": "string",
		"comment": "площадь ... строения"
	}, {
		"name": "Нет",
		"regex_find": "(строени[йи]|cтроени[йи]|здани[йи]|построек)\\sна\\s(участке|уч-ке)\\sнет",
		"type": "string",
		"comment": "строений на участке нет"
	},
	{
		"name": "Да",
		"regex_find": "(cобственность|права)\\sна\\s((земельн[ыйе]{2}|)\\s?участ[окиа]{2}|)\\s?(и|)\\s?(на|)\\s?(^капитальн[оегыхми]{2,3}|[а-яА-Я]{1,7}\\s?|)\\s?строени",
		"type": "string",
		"comment": "здание в собственности"
	},
	{
		"name": "Некапитальное строение",
		"regex_find": "(((на ((земельном )?уч(асто?|\\-)ке?|земле|зу)|на территории( (земельного )?уч(аст|\\-)ка)?|име[ею]тся|расположена?|есть|установлена?|построен[аы]?|готов(ый|ая)|сто[ия]т|наход[ия]тся|построек|постройки ?\\-?|постройками ?\\-?|строения ?\\-?|строениями ?\\-?|объекты ?\\-?|объектами ?\\-?) )|[!.] ?|^ ?)([а-я]+(ый|ые|ие|ых|их|ая|яя|ее|ое|ой|ий) |[0-9]+ )*нкс",
		"type":"string",
		"only_unclassified": false,
		"comment": "на участке некапитальное строение|некапитальное строение (начало фразы)"
	},{
		"name": "Некапитальное строение",
		"regex_find": "(участо?ка?|уч\\-ка?|земл[яи]|зу|соток|сотки|ижс) (со?|\\+|и) ([а-я]+(ые|ие|ий|ый|ая|яя|ое|ыми?|ими?|ей|ой) )*нкс",
		"type":"string",
		"only_unclassified": false,
		"comment": "участок с ...  некапитальное строение"
	},{
		"name": "Некапитальное строение",
		"regex_find": "продается ([а-я]+(ый|ий|ой|ая|яя|ую|юю|его|ого|ых|их) |[0-9]+ )*нкс",
		"comment": "продается некапитальное строение"
	},
	{
		"name": "Фундамент",
		"regex_find": "(?<!\\w)(на ((земельном )?уч(асто?|\\-)ке?|земле|зу)|на территории( (земельного )?уч(аст|\\-)ка)?|име[ею]тся|расположен|есть|залит|построен|готов(ый)?|сто[ия]т|наход[ия]тся|сделан|заложен(ный)?|установлен|сделан) ([а-я]+(ый|ой|ий) )*фундамент(?!\\w)",
		"type": "string",
		"only_unclassified": false,
		"comment": "утверждение о наличии фундамента"
	}, {
		"name": "Фундамент",
		"regex_find": "(?<!\\w)со? ([а-я]+(ым|ом|им) )*фундамент",
		"type": "string"
	},
	{
		"name": "Фундамент",
		"regex_find": "([.,!] ?|^)([а-я]+(ий|ый|ой) )*фундамент",
		"type": "string"
	},
	{
		"name": "Фундамент",
		"regex_find": "(?<!\\w)фундамент (под|для) (дом|дач|строительств)",
		"type": "string",
		"only_unclassified": false,
		"comment": "назначение фундамента"
	}, {
		"name": "Нет",
		"regex_find": "(?<!\\w)(нет|без)( каких-либо)?( [а-я]+[иы]х)* (построек|здани[йи]|строени[йи])(?!\\w)|(?<!\\w)без построек(?!\\w)|(?<!\\w)(построек|здани[йи]|строени[йи]) нет(?!\\w)",
		"only_unclassified": false,
		"type": "string"
	}, {
		"name": "Нет",
		"regex_find": "(пустой|чистый от (построек|строени[йи]|зданий))( [а-я]+[иоы]й)* участок|участок (пустой|чистый от (построек|строени[йи]|зданий))",
		"type": "string"
	},
	{
		"name": "Незавершенное строительство",
		"regex_find": "(?<!\\w)онс(?!\\w)",
		"only_unclassified": false,
		"type": "string"
	}, {
		"name": "Ветхие/Под Снос",
		"regex_find":"ветхое здание(?! снесен)(?! уже убран)(?! сгорел)(?! разобран)",
		"regex_neg": "пригод(ен|н(ая?|ы[хей]?|о(го)?)) для проживания",
		"type": "string"
	}
	]
}