{
	"task": "test1",
	"type": "get_float_from_text",
	"modf_text": {
		"low_case": true,
		"replace": {
			"standart": {
				"eng_rus": true,
				"str_int_to_int": true,
				"trim": true
			},
			"regex_replace": [{
					"old": ["высота ворот", "ворота высотой", "пандуса с?\\s?высотой", "ворот: высота"],
					"new": ""
				}, {
					"old": ["между перекрытиями", "от пола до потолка", "от перекрытия до перекрытия",
						"более",
						"на \\d\\-?о?м?\\s?этаже", " \\d\\-?(ого)?\\s?этажа", "\\d\\-?й?\\sэтаж[ае]?",
						"на (первом|втором|третьем) этаже", "(первый|второй|третий) этаж",
						"в \\d[-]?х?\\s?этажн(ых|ом)\\sздани(и|ях)",
						"\\d\\s?эт[\\.]?",
						"в чистоте", "от пола до низа несущих конструкций", "до низа несущих конструкций", "основного склада",
						"до ферм перекрытий", "в производственной части", "от пола до несущих конструкций", " до балок перекрытия",
						"до низа металлоконструкций", "в коньке", "в здании", "от пола до антресоли", "для стеллажного хранения",
						"достигает", "составляет",
						"от антресоли до фермы балок", "на обоих этажах", "до плит перекрытия", "части", "до коммуникаций",
						"-ми", "-х", "-ти"
					],
					"new": ""
				},
				{
					"old": [
                        "стоимость (аренды|продажи)( [а-я])+"
					],
					"new": "цена"
				}, {
					"old": ["(?<=\\d[,.])(\\s)(?=\\d{1,2}\\s?м)", "(?<=\\d\\d[,.])(\\s)(?=\\d{1,2}\\s?м)"],
					"new": ""
				}, {
					"old": [":"],
					"new": " "
				}, {
					"old": ["–", "—", " и ", "\\.\\.\\.", "~", "(?<=\\d)(\/)(?=\\d)"],
					"new": "-"
				}, {
					"old": ["  "],
					"new": " "
				}, {
					"old": ["(?<!)рубл(ей|я)", ""
				}
			]
		}
	},
	"regex": [{
			"name": "meter_price",
			"regex_filter": "",
			"regex_find": "",
			"type": "float",
			"diap": {
				"lower_value": 0,
				"upper_value": 30
			}
		},
		{
			"name": "monthly_price",
			"regex_filter": "",
			"regex_find": "",
			"type": "float",
			"diap": {
				"lower_value": 0,
				"upper_value": 30
			}
		}, {
			"name": "full_price",
			"regex_filter": "цена(?! за месяц)(?! в месяц)(?! за квметр) [0-9]+ руб\\."
		},
		{
			"name": "parking_monthly_price",
			"regex_filter": "",
			"regex_find": "",
			"type": "float",
			"diap": {
				"lower_value": 0,
				"upper_value": 30
			}
		}
	]
}