{
	"task": "water_resource",
	"type": "get_str_from_text",
	"modf_text": {
		"low_case": true,
		"replace": {
			"standart": {
				"eng_rus": true,
				"str_int_to_int": true,
				"trim": true
			},
			"regex_replace": [{
				"old": ["ё"],
				"new": "е"
			},{
				"old": ["й"],
				"new": "й"
				}, {				
				"old": ["(не)?\\s?больш[оийаяе]{,2}]|меньше|огромн[ыйагяое]{,3}|чуть|чист[ыешйая]{,4}|зеркал[оа]|проточн[ыйаяе]{,3}|наход[ия]тся|бежит|проходит|есть|протека[ею]т|многочисленн[ыеми]{,3}|берегов[ойая]{,2}|расстояни[еия]|расположен[ыоие]{,2}|располагается|(песочны[ейми]{,2}|песчан[огоымй]{,3})\\sпляж[аием]{,3}|земельн[огый]{,3}|для|купани[ея]|буквально|широк[ийаяое]{,2}|вид|понарамный|предел[ахе]{,2}"],
				"new": ""
			},{
				"old": ["(?<!\\w)озер[аео]?(?!\\w)",
						"(?<!\\w)речк[аеи](?!\\w)",
						"(?<!\\w)рек[еаи]?(?!\\w)",
						"(?<!\\w)мор[яе](?!\\w)",
						"(?<!\\w)океан[аом]{,2}(?!\\w)",
						"(?<!\\w)пруд[аовмуые]{,2}(?!\\w)",
						"(?<!\\w)карьер[аеы]?(?!\\w)",
						"(?<!\\w)водохранилищ[еуа](?!\\w)",
						"(?<!\\w)родник[иаеу]?(?!\\w)",
						"(?<!\\w)водо[её]м[оваеу]{,2}(?!\\w)",
						"(?<!\\w)залив[аеы]?(?!\\w)",
						"(?<!\\w)о\\.(?!\\w)",
						"(?<!\\w)канал[аеиы]?(?!\\w)",
						"(?<!\\w)р\\.",
						"(?<!\\w)вдхр\\.(?!\\w)",
						"(?<!\\w)(до\\s)?пляж[аеу]?(?!\\w)",
						"(?<!\\w)(до\\s)?берегов[аяой]{2} лини[яи](?!\\w)",
						"(?<!\\w)побереж[ьяе](?!\\w)"
					],
				"new": " водоем "
			},{
				"old": [
						"(?<!\\w)уча(?!\\w)",
						"(?<!\\w)руза(?!\\w)",
						"(?<!\\w)чанка(?!\\w)",
						"(?<!\\w)рузско[гое]{,2}(?!\\w)",
						"(?<!\\w)волга(?!\\w)",
						"(?<!\\w)десна(?!\\w)",
						"(?<!\\w)(3|три) пескаря(?!\\w)",
						"(?<!\\w)мечта(?!\\w)",
						"(?<!\\w)сенеж(?!\\w)",
						"(?<!\\w)сестра(?!\\w)",
						"(?<!\\w)истр[инскгоа]{,7}(?!\\w)",
						"(?<!\\w)ок[аеи](?!\\w)",
						"(?<!\\w)лама(?!\\w)",
						"(?<!\\w)нара(?!\\w)",
						"(?<!\\w)дубна(?!\\w)",
						"(?<!\\w)пахр[аы](?!\\w)",
						"(?<!\\w)торгоша(?!\\w)",
						"(?<!\\w)финск[огм]{,3}(?!\\w)",
						"(?<!\\w)можайско[его]{,2}(?!\\w)",
						"(?<!\\w)икшинско[гое]{,2}(?!\\w)",
						"(?<!\\w)икш[аиеы](?!\\w)",
						"(?<!\\w)окш[ае](?!\\w)",
						"(?<!\\w)клязьм[аинскому]{,7}(?!\\w)",
						"(?<!\\w)озернинс[коему]{,4}(?!\\w)",
						"(?<!\\w)москв[аыу](?!\\w)",
						"(?<!\\w)воданинско[его](?!\\w)",
						"(?<!\\w)жостовск[ийгое]{,3}(?!\\w)",
						"(?<!\\w)кам[аыеой]{,2}(?!\\w)",
						"(?<!\\w)осетр(?!\\w)",
						"(?<!\\w)долгиненск[ийоеая]{,2}(?!\\w)",
						"(?<!\\w)хотча(?!\\w)",
						"(?<!\\w)об[ьи](?!\\w)",
						"(?<!\\w)протва(?!\\w)",
						"(?<!\\w)истринск[оеийая]{,2}(?!\\w)",
						"(?<!\\w)лопасня(?!\\w)",
						"(?<!\\w)пальна(?!\\w)",
						"(?<!\\w)орловск[ийоеая]{,2}(?!\\w)",
						"(?<!\\w)данилищенск[ийоеая]{,2}(?!\\w)",
						"(?<!\\w)чусовск[ийоеая]{,2}(?!\\w)"
					],
				"new": ""
			},{
				"old": [
						"(?<!\\w)(пеш[еийая]{2}|шагов[оаяй]{2})\\sдоступност[иь](?!\\w)",
						"(?<!\\w)через дорогу(?!\\w)"
					],
				"new": "150 метров"
			},{
				"old": [
						"(?<!\\w)недалеко(?!\\w)",
						"(?<!\\w)неподалеку(?!\\w)",
						"(?<!\\w)на терр?итории(?!\\w)",
						"(?<!\\w)в непосредственной близости(?!\\w)",
						"(?<!\\w)близко(?!\\w)",
						"(?<!\\w)поблизости(?!\\w)",
						"(?<!\\w)вблизи(?!\\w)",
						"(?<!\\w)рукой подать до(?!\\w)",
						"(?<!\\w)возле(?!\\w)",
						"(?<!\\w)под рукой(?!\\w)"
					],
				"new": "рядом"
			},{											
				"old": [
						"(?<!\\w)пешком(?!\\w)",
						"(?<!\\w)пешочком(?!\\w)",
						"(?<!\\w)шаг[аомх]{,3}(?!\\w)",
						"(?<!\\w)пеш[ейим]{,2}(?!\\w)",
						"(?<!\\w)хо[тд]ьб[оеыийая]{,2}(?!\\w)",
						"(?<!\\w)где(?!\\w)",
						"(?<!\\w)можно(?!\\w)",
						"(?<!\\w)купаться\\s?и?(?!\\w)",
						"(?<!\\w)ловить(?!\\w)",
						"(?<!\\w)рыб[ау](?!\\w)",
						"(?<!\\w)хорош[ийая]{,2}(?!\\w)",
						"(?<!\\w)им\\.?(?!\\w)",
						"(?<!\\w)лес,(?!\\w)",
						"(?<!\\w)лес(?!\\w)"
					],
				"new": ""
			},{
				"old": [
						"(?<!\\w)-(?!\\w)",
						"(?<!\\w)['\"](?!\\w)",
						"(?<!\\w);(?!\\w)",
						"(?<!\\w)-(?=\\d)"														
					],
				"new": " "
			},{

				"old": ["посел[окла]{,3}|белое|(не)?большо[ейаыоея]{,2}|велосипед[нойе]{,3}|доступ[ныйости]{,5}|прогул[киноымйче]{,6}|малая|около|великолепн[оеый]{,2}|(смешанный)?\\sлес[а]?(?!\\w)|дереве?н[ыьяи]|прибрежн[аыйея]{,2}|панорамный|рыбалка|через|облагороженный|красив[оеыаяый]{,2}|всего|лес[нойго]{3,4}\\s?(массива?)?]|грибной|полновод[ныйая]{,3}|хвойн[ыйая]{,2}|собственн[ымойая]{,2}"],
				"new": ""
			},{
				"old": ["\\(|\\)|~|\\s-\\s|â|\\Wчем\\W|течет|(сосновый\\s)?бор|каскад|купаться"],
				"new": ""
			},{
				"old": ["\\-", "–", "—"],
				"new": "-"
			},{				
				"old": ["(?<=[0-9]) ?- ?[а-я]{1,3}(?!\\w)", "(?<=[0-9])(х|ти|ми)(?!\\w)"],
				"new": ""
			},{
				"old": ["\\s{5}","\\s{4}","\\s{3}","\\s{2}"],
				"new": " "
			},{
				"old": ["--"],
				"new": ""
			},{
				"old": [",,"],
				"new": ","
			},{
				"old": [
						"(?<!\\w),(?!\\w)"
						],
				"new": ", "
			},{
				"old": [
						"(?<!\\w)\\.(?!\\w)"
						],
				"new": ", "
			},			{				
				"old": ["(?<!([3-5]|\\.|,|\\d))((300[1-9]|30[1-9][0-9]|3[1-9][0-9]{2}|5000) ?м((етр(ов|ах)?|\\.)?)?(?!\\w)|(((3([.,]\\d+)?|4([.,][0-9]+)?|5)\\s?\\D\\s?((3([.,][0-9]+)?|4([.,][0-9]+)?|5|)|[хтие]{1,2}))|(3[.,][0-9]+?|4([.,][0-9]+)?|5|нескольк[ихо]{,2})) ?(км\\.?|километр(ов|ах?)?))(?!\\w)",
					"(?<![0-9])((1[0-4]|[89])(\\D|\\s){1,3}((1?[0-5])|[тми]{1,2})|1[0-4]|[89]) ?мин\\.?(ут(ах?|ы)?)?(?!\\w)\\s?(езды)?\\s?(на)?\\s?(машин[еой]{,2}|авто(мобил[ьем]{,2})?|транспортом)"],
				"new": "3-5км"
			},{
				"old": ["(?<![.,\\d])(([5-9]([.,]\\d+)?)[\\D\\s]{1,3}(5[.,]\\d+|[6-9]([.,]\\d+)?|\\d\\d)|5[.,]\\d+|[6-9]([.,]\\d+)?|\\d\\d) ?(км\\.?|километр(ов|ах?)?)(?!\\w)",
					"(?<![0-9])((1[5-9]|[2-9]\\d)(\\D|\\s){1,3}((1[5-9])|[2-9]\\d)|1[5-9]|2\\d) ?мин\\.?(ут(ах?|ы)?)?(?!\\w)\\s?(езды)?\\s?(на)?\\s?(машин[еой]{,2}|авто(мобил[ьем]{,2})?|транспортом|езд[ыой]{,2})"],
				"new": "более 5км"
			},{
				"old": ["(?<![.\\d])((100[1-9]|10[1-9][0-9]|1[1-9][0-9]{2}|2[0-9]{3}|3000) ?м\\.?(етр(ов|ах)?)?(?!\\w)|((([1-2]([.,]\\d+)?)[\\D\\s]{1,3}(1[.,]\\d+|2([.,][0-9]+)?|3))|1[.,]\\d+|2([.,][0-9]+)?|3|пар[ае]|полу?тор[ае]|дв(ух|а)|трех)х? ?(км\\.?|километр(ов|ах?)?))(?!\\w)",
						"(?<![0-9])(([5-9](\\D|\\s){1,3}([5-9]|10))|[5-9]|10) ?мин\\.?(ут(ах?|ы)?)?(?!\\w)\\s?(езды)?\\s?(на)?\\s?(машин[еой]{,2}|авто(мобил[ьем]{,2})?|транспортом|езды)",
						"(?<![-\\d])(((1[5-9]|2\\d)[\\D\\s]{1,3}(1[1-9]|2\\d|30))|1[5-9]|2[0-9]|30)(-?[тим]{,2}) ?мин\\.?(ут?(ах?|ы)?)?(?!\\w)"],
				"new": "1-3км"
			},{												
				"old":[ "(?<![0-9])(((\\d{1,2})[\\D\\s]{1,3}((\\d{2})|100))|\\d{1,2}|100|нескольк[ихо]{,2})(-?[тми]{,2})?(\\s|\\.)?м((етр(ов|ах)|\\.)?)?(?!\\w)",
					"((1|одной) ?мин\\.?(ут[еахы]{,2})?(?!\\w))|(?<!\\d)\\sминут[ае]\b",
					"(перв[аяой]{,2}|1[аяой-]{,3})(\\s|-){,3}(линн?и[ия]?)",
					"(\\d?\\d)[\\s]{,3}шагах"
				],
				"new": "менее 100м"
			},{
				"old": ["(?<![0-9])((((([1-4]\\d{2})[\\D\\s]{,3}(1(0[1-9]|[1-9]\\d)|[2-4]\\d{2}|500))|(10[1-9]|1[1-9]\\d)|[2-4]\\d{2}|500|(двух|2)х?стах?|двести|(трех|3)х?стах?|триста|(четырех|4)х?стах?|четыреста|(пяти|5)стах?|пятиста|(3|тр[иех]}{,2})\\s?сотн[иях]{,2}|(2|дв[еух]{,2})\\s?сотн[иях]{,2}|(4|четырех?)|(5|пяти)\\s?сотн[иях]{,2})))[-ахти]{,3} ?м\\.?(е[тр]{2}(ов|ах)?)?(?!\\w)|(0[.,][1-5]) ?(км|километр(ов|ах?)?)(?!\\w)|полу?километр[ае]",
					"(?<![0-9])(ме[тр]{2}(ов|ах)?)\\s?((((([1-4]\\d{2})[\\D\\s]{,3}(1(0[1-9]|[1-9]\\d)|[2-4]\\d{2}|500))|(10[1-9]|1[1-9]\\d)|[2-4]\\d{2}|500|(двух|2)х?стах?|двести|(трех|3)х?стах?|триста|(четырех|4)х?стах?|четыреста|(пяти|5)стах?|пятиста|(3|тр[иех]}{,2})\\s?сотн[иях]{,2}|(2|дв[еух]{,2})\\s?сотн[иях]{,2}|(4|четырех?)|(5|пяти)\\s?сотн[иях]{,2})))",
					"(?<![0-9])(((1[.,]\\d+|[2-4]([.,]\\d+)?|5)[\\D\\s]{1,3}([2-7]([.,]\\d+)?|10|[тим]{,2}))|(1[.,]\\d+|[2-4]([.,]\\d+)?|5))\\s?мин\\.?(ут(ах?|ы)?)?(?!\\w)",
					"(втор[аяой]{,2}|2[-аяой]{,3})(\\s|-){,3}(линн?и[ия]?)","((3|трет)-?[ейияь]{,3})(\\s|-){,3}(линн?и[ия]?)",
					"(четверт[аяой]{,2}|4[-аяой]{,3})(\\s|-){,3}(линн?и[ия]?)"
					],
				"new": "100-500м"
			},{
				"old": ["(?<!\\d)((((((5(0[1-9]|[1-9]\\d)|[6-9]\\d{2}))\\D((5(0[1-9]|[1-9]\\d)|[6-9]\\d{2}|1000)))|(5(0[1-9]|[1-9]\\d)|[6-9]\\d{2}|1000|([5-9]стах?))) ?м\\.?(етр(ов|ах)?)?(?!\\w))|(((0[.,](5(0*[1-9]0*)+|[6-9][0-9]*))|1|один)\\s?(км\\.?|километр[оеав]{,2}))(?!\\w))",
					"(?<![0-9])(((5[.,][0-9]+|[6-9]([.,][0-9]+)?|10)[\\D\\s]{1,3}(5[.,][0-9]+|[6-9]([.,][0-9]+)?|1[0-5]))|5[.,][0-9]+|[6-9]([.,][0-9]+)?|1[0-5]) ?мин\\.?(ут(ах?|ы)?)?(?!\\w)"
					],
				"new": "500м-1км"
				}
			]
		}
	},
	"regex": [{
		"name": "водоем на участке",
		"regex_find": "((на|по) участк[еу])\\s(-?\\w*\\s?){,2}водоем",
		"regex_neg": "",
		"type": "string",
		"comment": ""
	},{
		"name": "водоем на участке",
		"regex_find": "водоем\\s(на|по)\\s?(-?\\w*\\s?)?участк[еу]",
		"regex_neg": "",
		"type": "string",
		"comment": ""
	},{
		"name": "до 100 м от воды",
		"regex_find": "(менее 100м)\\s(-?\\w*\\s?){,3}(водоема?|пляжа?|берега?)",
		"regex_neg": "",
		"type": "string",
		"comment": ""
	},{
		"name": "до 100 м от воды",
		"regex_find": "(водоема?|пляжа?|берега?)\\s(-?\\w*\\s?){,3}менее 100м",
		"regex_neg": "",
		"type": "string",
		"comment": ""
	},{
		"name": "до 100 м от воды",
		"regex_find": "(водоем|пляжа?|берег).{,5}(огибает|пересекает|соприкасается|прилегает)|выход[омит]{,2}(\\s){,3}(на|к)?(\\s){,3}(водоем|пляжа?|берег)",
		"regex_neg": "",
		"type": "string",
		"comment": ""
	},{		
		"name": "до 100 м от воды",
		"regex_find": "границ\\w?\\s(участка|земли)\\s(-?\\w+\\s)?(-?\\w+\\s)?(-?\\w*\\s)?водоем|водоем\\s(-?\\w+\\s)?(-?\\w*\\s)?(\\w+\\s)?границ\\w?",
		"regex_neg": "",
		"type": "string",
		"comment": ""
	},{	
		"name": "до 100 м от воды",
		"regex_find": "((участ[окуеа]{,3}|земл[ияюе]{,2})\\s(-?\\w*\\s?)?(\\w*\\s?)?(огибает|пересекает|(со)?прикасается|прилегает)\\s?(-?\\w*\\s?)?(\\w*\\s?)(водоем[уом]{,2}|пляж[ауем]{,2}|берег[ау]{,2}))|((водоем|пляжа?|берег)\\s(\\w*\\s?)?(\\w*\\s?)?(огибает|пересекает|(со)?прикасается|прилегает)\\s?(-?\\w*\\s?)?(-?\\w*\\s?)(участ[окуеа]{,3}|земл[ияюе]{,2}))",
		"regex_neg": "",
		"type": "string",
		"comment": ""
	},{						
		"name": "до 100 м от воды",
		"regex_find": "(в|к|на|по)?\\s?(границе?|терр?итории|)\\s?(деревн[еюи]|(дачн[ыйомгу]{2,3}|котеджн[ыйомгу]{2,3})?\\s?посел[океау]{2}|кооператив[еау]?|микрорайон[еау]?|населенн[ыйомгу]{2,3}\\sпункт[еау]?|обществ[оеау]|садов[омегу]{2,3}\\sобществ[оеау]|поселени[иеяю]|снт|садоводств[оеау]|сел[оеау]|массив[еау]?)\\s(-?\\w*\\s?){,2}(водоема?|пляжа?|берега?)",
		"regex_neg": "",
		"type": "string",
		"comment": ""
	},{							
		"name": "до 100 м от воды",
		"regex_find": "(выход[омит]{,2}|проход[омит]{,2})\\s(на|к|через)?(-?\\w*\\s?)?\\s?(водоем[уеа]?|пляж[уеа]?|берег[уеа]?)",
		"regex_neg": "",
		"type": "string",
		"comment": ""
	},{							
		"name": "100-500 м от воды",
		"regex_find": "(100-500м)\\s(-?\\w*\\s?){,3}(водоема?|пляжа?|берега?)",
		"regex_neg": "",
		"type": "string",
		"comment": ""
	},{
		"name": "100-500 м от воды",
		"regex_find": "(водоема?|пляжа?|берега?)\\s(-?\\w*\\s?){,3}(100-500м)",
		"regex_neg": "",
		"type": "string",
		"comment": ""
	},{
		"name": "500 м-1 км до воды",
		"regex_find": "(500м-1км)\\s(-?\\w*\\s?){,3}(водоема?|пляжа?|берега?)",
		"regex_neg": "",
		"type": "string",
		"comment": ""
	},{
		"name": "500 м-1 км до воды",
		"regex_find": "(водоема?|пляжа?|берега?)\\s(-?\\w*\\s?){,3}(500м-1км)",
		"regex_neg": "",
		"type": "string",
		"comment": ""
	},{
		"name": "1-3 км от воды",
		"regex_find": "(1-3км)\\s(-?\\w*\\s?){,3}(водоема?|пляжа?|берега?)",
		"regex_neg": "",
		"type": "string",
		"comment": ""
	},{
		"name": "1-3 км от воды",
		"regex_find": "(водоема?|пляжа?|берега?)\\s(-?\\w*\\s?){,3}(1-3км)",
		"regex_neg": "",
		"type": "string",
		"comment": ""
	},{
		"name": "3-5 км от воды",
		"regex_find": "(водоем)\\s(-?\\w*\\s?){,3}(3-5км)",
		"regex_neg": "",
		"type": "string",
		"comment": ""
	},{
		"name": "3-5 км от воды",
		"regex_find": "(3-5км)\\s(-?\\w*\\s?){,3}(водоем)",
		"regex_neg": "",
		"type": "string",
		"comment": ""
	},{		
		"name": "более 5 км от воды",
		"regex_find": "(более 5км)\\s(-?\\w*\\s?){,3}(водоема?|пляжа?|берега?)",
		"regex_neg": "",
		"type": "string",
		"comment": ""
	},{
		"name": "более 5 км от воды",
		"regex_find": "(водоема?|пляжа?|берега?)\\s(-?\\w*\\s?){,3}(более 5км)",
		"regex_neg": "",
		"type": "string",
		"comment": ""
	},{
		"name": "водоем рядом",
		"regex_find": "((рядом|вблизи))\\s(-?\\w*\\s?){,2}водоем",
		"regex_neg": "",
		"type": "string",
		"comment": ""
	},{
		"name": "водоем рядом",
		"regex_find": "водоем\\s(-?\\w*\\s?){,2}((рядом|вблизи))",
		"regex_neg": "",
		"type": "string",
		"comment": ""
	}
]
}